pos,cat,cat_pos,name,zwid,team,time,time_gun,avg,wats,np,p20m,p5m,p1m,p30s,p15s,weight,hr,hr_max,height,gain
1,A,1,.. MDR..,2043204,PETA-Z,2339.0,0.0,4.9,346,381,5.0,6.7,7.6,8.2,8.6,71.0,157.0,176.0,175,16.64
2,A,2,Isaac Perez,1798863,,2544.0,204.0,4.1,290,308,4.2,5.2,6.0,6.1,6.2,70.0,159.0,180.0,190,54.26
3,A,3,Jacopo Dalmasson,1659351,,2554.0,214.0,4.3,256,266,4.3,5.1,5.4,5.6,6.0,60.0,143.0,206.0,172,8.92
4,A,4,Vicente Escudero,2027353,ZESP,2583.0,243.0,3.9,256,270,4.0,5.0,5.7,6.1,6.6,65.0,171.0,186.0,177,38.86
5,A,5,Maciej Szymanski,903236,,2584.0,244.0,4.2,278,285,4.3,4.9,5.2,5.3,5.6,67.0,145.0,161.0,180,
6,A,6,14002 Matteo Casadei [ITA],199374,Team Italy,2591.0,251.0,4.3,239,252,4.4,5.7,6.4,6.6,6.9,56.0,158.0,175.0,168,
7,A,7,Jose Sanchez2,1893395,ZESP,2834.0,494.0,3.4,218,229,3.5,4.2,4.8,5.3,6.0,64.0,159.0,174.0,171,15.75
8,B,1,Javier Angulo,94910,,2574.0,0.0,3.9,271,285,4.0,4.9,5.2,5.3,5.3,70.0,152.0,167.0,174,12.57
9,B,2,Ricardo Alarcón ,1893318,PETA-Z,2584.0,9.665,3.8,271,292,3.8,4.8,5.3,5.5,5.7,72.0,147.0,162.0,170,2.07
10,B,3,marc carrera ,1101089,ZESP,2628.0,53.912,3.6,261,281,3.8,4.9,5.3,5.6,5.7,72.0,161.0,177.0,180,0.7
11,B,4,Mikel Mariñelarena,219521,PETA-Z,2729.0,154.0,3.6,283,298,3.7,4.5,5.0,6.4,8.0,78.0,153.0,175.0,182,27.96
12,B,5,Rober Galan,502298,ZESP,2730.0,155.0,3.5,280,297,3.6,4.3,4.6,4.9,5.2,79.0,148.0,163.0,186,38.59
13,B,6,Javier Fernández valledor [ZESP],1026117,,2736.0,161.0,3.8,248,258,4.0,4.9,5.4,6.1,7.0,65.0,157.0,173.0,170,36.09
14,B,7,Luciano Pollastri,1965038,ZESP,2751.0,176.0,3.7,281,292,3.7,4.5,5.1,5.4,5.6,77.0,157.0,168.0,179,7.69
15,B,8,Alex Pages [ZESP],695555,ZESP,2760.0,186.0,3.6,250,263,3.9,4.6,4.8,5.0,5.4,69.0,145.0,162.0,169,31.11
16,B,9,Alberto Perez ,293153,ZESP,2794.0,219.0,3.4,230,241,3.5,4.3,4.5,4.6,5.0,67.0,148.0,163.0,169,
17,B,10,Cristóbal Martinez,1804344,MexICan,2794.0,219.0,3.7,241,249,3.7,4.3,4.7,5.4,5.6,66.0,158.0,170.0,176,26.12
18,B,11,Kike Torregrosa,710093,ZESP,2805.0,231.0,3.4,257,273,3.5,4.1,5.1,5.4,6.2,76.0,164.0,199.0,172,
19,B,12,Aitor Mauri,2375633,PETA-Z,2809.0,235.0,3.8,283,288,3.9,4.1,4.7,5.2,5.5,74.0,150.0,160.0,184,21.13
20,B,13,Oscar Perez,1037495,ZESP,2815.0,240.0,3.6,296,302,3.7,4.2,4.4,4.6,5.4,82.3,156.0,164.0,189,18.63
21,B,14,David Corrales,2713423,,2876.0,301.0,3.4,246,257,3.7,4.4,4.8,5.1,5.3,72.0,159.0,170.0,180,16.14
22,B,15,Manu Maldonado ,2579117,ZESP,2882.0,307.0,3.6,245,249,3.8,4.0,4.6,4.7,5.0,69.0,175.0,185.0,174,
23,B,16,Dave Morel [STOLEN GOAT] (GTOC),1192244,STOLEN GOAT ,2902.0,327.0,3.6,259,264,3.6,4.2,5.5,6.0,6.4,72.0,148.0,179.0,175,
24,B,17,Mikkel Bang Andersen ,1488990,BZR cycling team,2938.0,363.0,3.5,228,234,3.6,4.0,4.6,5.6,6.6,65.0,179.0,188.0,180,
25,B,18,C.Pola,1519055,PETA-Z,2978.0,403.0,3.2,249,258,3.3,3.7,4.1,4.2,4.6,79.0,162.0,173.0,177,3.67
26,B,19,Ismael Adán  ,500206,ZESP,3063.0,488.0,3.1,225,231,3.3,3.5,3.7,3.8,4.1,72.0,156.0,168.0,175,1.17
27,B,20,Javi Can,1823909,ZESP,3082.0,507.0,3.0,254,265,3.3,3.6,3.8,4.2,5.0,84.0,161.0,180.0,184,
28,B,21,Fran Morís,88349,ZESP,3130.0,555.0,3.0,235,249,3.3,3.7,4.3,4.5,4.7,78.0,141.0,157.0,188,
29,B,22,Peter Ruzicka,2094411,ZESP,3216.0,641.0,3.0,221,228,2.9,3.8,4.7,5.2,5.5,75.0,166.0,177.0,181,
30,C,1,Serna ,693209,ZESP,2831.0,0.0,3.4,209,221,3.4,4.1,4.8,4.8,4.9,62.0,156.0,170.0,168,21.2
31,C,2,AlfonsoDT,1478045,PETA-Z,3041.0,210.0,2.9,247,263,3.2,3.7,4.0,4.6,6.0,84.0,151.0,196.0,190,19.16
32,C,3,Manu Domínguez,1445769,ZESP,3041.0,210.0,3.0,205,217,3.0,3.7,4.0,4.6,5.9,68.0,158.0,176.0,170,17.13
33,C,4,Ziclon,1575251,ZESP,3083.0,252.0,3.0,215,222,3.2,3.5,3.7,4.3,4.9,72.0,158.0,171.0,173,10.62
34,C,5,Geir Wilhelmsen,317629,,3160.0,329.0,2.9,222,231,3.3,3.7,4.2,4.5,4.6,76.0,105.0,213.0,178,13.05
35,C,6,Jan Van Damme,836217,,3178.0,347.0,2.9,210,224,3.2,3.7,4.6,4.7,5.2,72.0,173.0,186.0,177,11.02
36,C,7,Stefan Hellstern,378730,,3232.0,401.0,2.9,214,224,3.1,3.4,3.8,4.3,5.0,75.0,156.0,183.0,171,8.98
37,C,8,Garcia Goyo,2040136,,3304.0,473.0,3.0,198,203,3.2,3.4,3.8,4.2,5.1,66.0,166.0,175.0,172,4.91
38,C,9,Raúl Sánchez,2677888,ZESP,3304.0,473.0,2.7,182,192,3.0,3.3,3.7,4.7,5.9,68.0,162.0,173.0,173,2.87
39,C,10, J Sanchez,1224405,ZESP,3326.0,495.0,2.9,218,221,3.1,3.2,3.5,3.6,4.1,75.0,153.0,165.0,173,
40,C,11,Frank W.,227590,M3 CGN,3338.0,506.0,2.8,225,238,3.1,3.4,4.0,4.2,4.5,80.0,142.0,172.0,186,
41,C,12,Terry Stroud ,838537,,3413.0,582.0,2.7,244,249,3.0,3.1,3.4,3.5,4.1,92.0,146.0,153.0,193,
42,C,13,Steve Cyclist [RONDE],1740852,,3501.0,670.0,2.8,213,215,2.8,3.1,3.4,3.5,3.5,77.0,151.0,162.0,183,
43,C,14,Rob Sutherland5893,1508234,,3582.0,751.0,2.6,183,194,2.8,3.3,3.8,4.0,5.0,70.0,142.0,162.0,175,
44,C,15,Sergiopc77,1545674,ZESP,3828.0,997.0,2.7,212,238,3.2,3.6,5.0,6.3,7.5,80.0,117.0,146.0,182,
45,C,16,Cristian Coca,2375542,ZESP,3832.0,1001.0,2.3,175,185,2.7,2.9,3.1,3.7,4.7,77.0,150.0,159.0,178,
46,D,1,Dabid_C,2258349,ZESP,3769.0,0.0,2.3,195,199,2.5,2.6,2.9,3.3,4.1,84.0,162.0,172.0,182,
47,D,2,JuanRagaso,2569181,ZESP,3822.0,52.756,2.3,197,200,2.5,2.8,3.0,3.1,3.2,85.0,161.0,170.0,175,7.98
48,D,3,Gautier Nutte,1713093,,4097.0,327.0,2.1,176,186,2.3,2.5,3.1,3.6,3.7,84.0,161.0,177.0,182,3.41
49,D,4,t brooks,2331587,,4266.0,496.0,1.9,173,178,2.2,2.2,2.5,2.8,2.9,90.0,,,185,
50,D,5,Pelayo Gonzalez,2698496,ZESP,5592.0,1822.0,1.4,129,135,1.6,1.8,1.9,2.0,2.2,94.0,149.0,165.0,168,
