,DT_RowId,ftp,friend,pt,label,zid,pos,position_in_cat,name,cp,act_id,act_name,zwid,res_id,aid,lag,uid,time,time_gun,gap,vtta,male,tid,topen,tname,tc,tbc,tbd,zeff,category,height,flag,avg_hr,max_hr,hrmax,hrm,weight,power_type,display_pos,src,age,zada,note,div,divw,skill,skill_b,skill_gain,np,hrr,hreff,avg_power,avg_wkg,wkg_ftp,wftp,wkg_guess,wkg1200,wkg300,wkg120,wkg60,wkg30,wkg15,wkg5,w1200,w300,w120,w60,w30,w15,w5,is_guess,upg,penalty,reg,fl,pts,pts_pos,info,info_notes,log,lead,sweep,anal
0,,340,0,,1,269949,1,1,Martin Hammer Larsen,1,0,,83405,269949.1,827951,0,348481022679166112,"[2673.611, 1]",2673.611,0.0,0,1,3282,1,POAUTO,004080,89cff0,f2740b,1,A,184.0,dk,"[150, 0]","[190, 0]","[0, 0]",1,71.0,3,1,1,47,0,,5,0,245.84,183.97,0,"[330, 0]","['1.99', 0]","['35', 0]","[299, 0]","['4.2', 0]","['4.0', 0]","[286, 0]",0,"['4.3', 0]","['5.6', 1]","['6.8', 1]","['7.5', 1]","['8.5', 1]","['11.0', 1]","['11.5', 0]","['302', 0]","['395', 0]","['482', 1]","['532', 1]","['606', 1]","['781', 1]","['819', 1]",0,0,0,1,0,0,0,0,[],0,0,0,0
1,,317,0,,1,269949,2,2,Hefin Evans ,1,0,,1123557,269949.2,2173991,0,348481023240679520,"[2674.068, 0]",2674.068,0.457,0,1,2298,1,Rowe & King,ffffff,2b5bb8,2fba4e,1,A,168.0,gb-wls,"[159, 0]","[185, 0]","[0, 0]",1,57.0,3,1,1,22,0,,10,0,279.49,249.76,0,"[278, 0]","['1.59', 0]","['35', 0]","[253, 0]","['4.4', 0]","['4.3', 1]","[248, 0]",0,"['4.6', 1]","['5.5', 0]","['6.6', 0]","['7.4', 0]","['7.9', 0]","['9.4', 0]","['10.5', 0]","['262', 0]","['315', 0]","['379', 0]","['419', 0]","['448', 0]","['533', 0]","['598', 0]",0,0,0,1,0,0,0,0,[],0,0,0,0
2,,359,0,,1,269949,3,3,Pello Osoro,1,0,,135873,269949.3,0,0,348481032250044736,"[2675.573, 0]",2675.573,1.962,0,1,2146,0,ZESP,000000,fabd00,ad1519,1,A,180.0,es,"[131, 0]","[173, 0]","[0, 0]",1,70.0,3,1,1,27,0,,5,0,313.15,281.51,2.04,"[332, 0]","['2.38', 1]","['29', 1]","[312, 0]","['4.5', 1]","['4.2', 0]","[296, 0]",0,"['4.5', 0]","['5.8', 4]","['6.4', 0]","['6.9', 0]","['7.0', 0]","['7.8', 0]","['8.3', 0]","['312', 0]","['405', 4]","['451', 4]","['481', 0]","['493', 0]","['546', 0]","['581', 0]",0,0,0,1,0,0,0,0,[],0,0,0,0
3,,281,0,,1,269949,4,4,Matthew Ellis,1,0,,208917,269949.4,2500965,0,348481138195471040,"[2686.7, 0]",2686.7,13.089,0,1,2060,1,VRP,ffffff,0073b7,ffffff,1,A,0.0,gb,"[168, 0]","[193, 0]","[0, 0]",1,62.0,3,1,1,17,0,,0,0,346.80,0,50.64,"[286, 0]","['1.58', 0]","['39', 0]","[265, 0]","['4.3', 0]","['4.1', 0]","[259, 0]",0,"['4.4', 0]","['5.4', 0]","['6.0', 0]","['6.7', 0]","['7.4', 4]","['8.0', 0]","['8.9', 0]","['273', 4]","['336', 4]","['375', 4]","['418', 4]","['458', 4]","['498', 4]","['553', 4]",0,0,0,1,0,0,0,0,[],0,0,0,0
4,,320,0,,1,269949,5,5,Mikel Aristegi,1,0,,274849,269949.5,1539799,0,348481235396966496,"[2696.575, 0]",2696.575,22.964,0,1,0,1,,00dd00,,,1,A,173.0,es,"[164, 0]","[183, 0]","[0, 0]",1,75.0,3,1,1,39,0,,20,0,380.46,376.87,1.58,"[318, 0]","['1.79', 0]","['41', 0]","[293, 0]","['3.9', 0]","['3.8', 0]","[285, 0]",0,"['4.0', 0]","['4.9', 0]","['5.5', 0]","['6.1', 0]","['7.0', 0]","['8.1', 0]","['8.6', 0]","['301', 0]","['365', 0]","['416', 4]","['454', 0]","['528', 0]","['607', 0]","['643', 0]",0,0,0,1,0,0,0,0,[],0,0,0,0
5,,299,0,,1,269949,6,6,magomar,1,0,,92730,269949.6,7117519,0,348481230313469952,"[2697.546, 0]",2697.546,23.935,0,1,2146,0,ZESP,000000,fabd00,ad1519,1,A,181.0,es,"[165, 0]","[187, 0]","[0, 0]",1,68.0,3,1,1,48,0,,10,0,414.11,468.80,37.18,"[310, 0]","['1.79', 0]","['38', 0]","[295, 0]","['4.3', 0]","['4.1', 0]","[283, 0]",0,"['4.4', 0]","['5.4', 4]","['6.1', 0]","['6.5', 0]","['7.4', 0]","['7.6', 0]","['8.5', 0]","['298', 0]","['365', 4]","['412', 0]","['445', 0]","['501', 0]","['518', 0]","['581', 0]",0,0,0,1,0,0,0,0,[],0,0,0,0
6,,290,0,,1,269949,7,7,davide comberlato7569,1,0,,890965,269949.7,14146581,0,348481260487293536,"[2701.937, 0]",2701.937,28.326,0,1,588,1,Team Italy,dd4b39,ffffff,00a65a,1,A,184.0,it,"[169, 0]","[186, 0]","[0, 0]",1,67.0,3,1,1,29,0,,10,0,447.77,450.71,25.93,"[296, 0]","['1.68', 0]","['39', 0]","[284, 0]","['4.2', 0]","['4.1', 0]","[279, 0]",0,"['4.4', 4]","['5.1', 4]","['5.5', 0]","['6.2', 0]","['7.1', 0]","['7.4', 0]","['7.8', 0]","['294', 4]","['340', 4]","['368', 0]","['418', 0]","['473', 0]","['494', 0]","['522', 0]",0,0,0,1,0,0,0,0,[],0,0,0,0
7,,276,0,,1,269949,8,8,Ibon Mujika,1,0,,620026,269949.8,204441,0,348481302983982368,"[2706.032, 0]",2706.032,32.421,0,1,0,0,,00dd00,,,1,A,175.0,id,"[155, 0]","[175, 0]","[0, 0]",1,61.0,3,1,1,46,0,,10,0,481.42,425.68,23.72,"[287, 0]","['1.75', 0]","['34', 0]","[272, 0]","['4.5', 1]","['4.3', 1]","[267, 0]",0,"['4.6', 1]","['5.5', 4]","['6.3', 0]","['7.0', 0]","['7.4', 0]","['8.6', 0]","['9.9', 0]","['282', 4]","['335', 4]","['387', 4]","['429', 0]","['452', 0]","['523', 0]","['602', 0]",0,0,0,1,0,0,0,0,[],0,0,0,0
8,,294,0,,1,269949,9,9,tomas cuevas,1,0,,732759,269949.9,0,0,348482095959085520,"[2800.809, 0]",2800.809,127.198,0,1,4523,1,eLatino,fe2ec8,fafafa,fe2ec8,1,A,167.0,ar,"[161, 0]","[184, 0]","[0, 0]",1,63.0,3,1,1,38,0,,5,0,515.07,273.67,0,"[274, 0]","['1.58', 0]","['39', 0]","[255, 0]","['4.1', 0]","['4.1', 0]","[258, 0]",0,"['4.3', 0]","['5.1', 0]","['5.8', 0]","['6.3', 0]","['7.0', 0]","['7.5', 0]","['8.3', 0]","['272', 0]","['324', 0]","['365', 0]","['398', 0]","['441', 0]","['471', 0]","['524', 0]",0,0,0,1,0,0,0,0,[],0,0,0,0
9,,263,0,,1,269949,10,10, montoya,1,0,,593652,269949.10,0,0,348482294861895424,"[2825.208, 0]",2825.208,151.597,0,1,2146,1,ZESP,000000,fabd00,ad1519,1,A,169.0,es,"[150, 0]","[170, 0]","[0, 0]",1,62.0,3,1,1,49,0,,10,0,548.73,448.57,0,"[265, 0]","['1.67', 0]","['37', 0]","[251, 0]","['4.1', 0]","['4.0', 0]","[249, 0]",0,"['4.2', 0]","['4.9', 4]","['5.5', 0]","['6.1', 0]","['7.0', 0]","['8.6', 4]","['11.9', 1]","['263', 0]","['303', 4]","['343', 4]","['380', 4]","['436', 4]","['532', 4]","['738', 4]",0,0,0,1,0,0,0,0,[],0,0,0,0
10,,280,0,,2,269949,11,1,Minyana NEO,1,0,,91920,269949.11,7867457,0,348481327310945808,"[2709.905, 0]",2709.905,0.0,0,1,2146,0,ZESP,000000,fabd00,ad1519,1,B,172.0,es,"[160, 0]","[181, 0]","[182, 0]",1,68.0,3,1,1,57,0,,20,0,325.32,322.25,2.16,"[286, 0]","['1.64', 0]","['41', 0]","[262, 0]","['3.9', 0]","['3.8', 0]","[258, 0]",0,"['4.0', 0]","['4.8', 0]","['5.7', 0]","['6.7', 0]","['7.5', 0]","['7.6', 0]","['8.3', 0]","['272', 0]","['329', 0]","['391', 0]","['458', 0]","['507', 0]","['514', 0]","['567', 0]",0,0,0,1,0,0,0,0,[],0,0,0,0
11,,320,0,,2,269949,12,2,Rasmus Otzen,1,0,,1407880,269949.12,39685426,0,348481728798099520,"[2757.711, 0]",2757.711,47.806,0,1,1986,0,DBR,ffffff,eb7b2a,ffffff,1,B,180.0,dk,"[153, 0]","[170, 0]","[0, 0]",1,84.0,3,1,1,36,0,,20,0,332.36,559.98,53.53,"[339, 0]","['2.14', 0]","['39', 0]","[328, 0]","['3.9', 0]","['3.8', 0]","[320, 0]",0,"['4.0', 0]","['4.6', 0]","['4.9', 0]","['5.3', 0]","['6.4', 0]","['7.1', 0]","['8.5', 0]","['337', 0]","['384', 0]","['408', 0]","['445', 0]","['538', 0]","['599', 0]","['710', 0]",0,0,0,1,0,0,0,0,[],0,0,0,0
12,,256,0,,2,269949,13,3,Javier Martín Morales,1,0,,871670,269949.13,1801950,0,348482076589789536,"[2799.134, 0]",2799.134,89.229,0,1,2146,1,ZESP,000000,fabd00,ad1519,1,B,178.0,es,"[175, 0]","[194, 0]","[0, 0]",1,61.0,3,1,1,24,0,,20,0,339.39,0,52.12,"[269, 0]","['1.48', 0]","['41', 0]","[259, 0]","['4.3', 0]","['4.1', 0]","[255, 0]",0,"['4.4', 0]","['4.9', 0]","['5.4', 4]","['5.9', 4]","['6.7', 0]","['7.4', 4]","['7.9', 0]","['269', 4]","['299', 0]","['328', 4]","['357', 4]","['409', 4]","['450', 4]","['482', 4]",0,0,0,1,0,0,0,0,[],0,0,0,0
13,,263,0,,2,269949,14,4,⚡ Goyini  ,1,0,,962019,269949.14,0,0,348482097654108752,"[2801.191, 0]",2801.191,91.286,0,1,2146,0,ZESP,000000,fabd00,ad1519,1,B,172.0,es,"[168, 0]","[185, 0]","[0, 0]",1,65.0,3,1,1,39,0,,20,0,346.43,394.52,12.47,"[261, 0]","['1.46', 0]","['44', 0]","[246, 0]","['3.8', 0]","['3.7', 0]","[243, 0]",0,"['3.9', 0]","['4.6', 0]","['5.5', 0]","['6.2', 0]","['6.7', 0]","['8.0', 0]","['8.3', 0]","['256', 0]","['300', 4]","['359', 4]","['401', 0]","['436', 0]","['519', 0]","['537', 0]",0,0,0,1,0,0,0,0,[],0,0,0,0
14,,286,0,,2,269949,15,5,Jonny Bullen,1,0,,383902,269949.15,310647,0,348482105706648096,"[2802.799, 0]",2802.799,92.894,0,1,1958,0,TEAM ZWC,f70f66,000000,ea0026,1,B,180.0,gb,"[169, 0]","[187, 0]","[0, 0]",1,72.0,3,1,1,32,0,,20,0,353.46,310.40,0,"[280, 0]","['1.53', 0]","['46', 0]","[259, 0]","['3.6', 0]","['3.6', 0]","[260, 0]",0,"['3.8', 0]","['4.3', 0]","['5.0', 0]","['5.8', 0]","['7.3', 0]","['8.7', 0]","['9.3', 0]","['274', 0]","['309', 0]","['359', 0]","['415', 0]","['523', 0]","['624', 0]","['672', 0]",0,0,0,1,0,0,0,0,[],0,0,0,0
15,,279,0,,2,269949,16,6,IG,1,0,,1437116,269949.16,8424995,0,348482153393207536,"[2808.324, 0]",2808.324,98.419,0,1,2146,0,ZESP,000000,fabd00,ad1519,1,B,178.0,es,"[147, 0]","[169, 0]","[0, 0]",1,74.0,3,1,1,34,0,,20,0,360.49,482.26,47.90,"[294, 0]","['1.89', 0]","['39', 0]","[278, 0]","['3.8', 0]","['3.7', 0]","[278, 0]",0,"['4.0', 4]","['4.6', 4]","['5.1', 4]","['5.4', 0]","['6.4', 0]","['7.3', 0]","['7.9', 0]","['293', 4]","['337', 4]","['374', 4]","['400', 0]","['476', 0]","['538', 0]","['588', 0]",0,0,0,1,0,0,0,0,[],0,0,0,0
16,,261,0,,2,269949,17,7,Nano,1,0,,1368240,269949.17,13859894,0,348482281621470176,"[2823.521, 0]",2823.521,113.616,0,1,2146,0,ZESP,000000,fabd00,ad1519,1,B,180.0,es,"[169, 0]","[183, 0]","[0, 0]",1,68.0,3,1,1,40,0,,20,0,374.56,394.07,10.54,"[272, 0]","['1.50', 0]","['45', 0]","[253, 0]","['3.7', 0]","['3.7', 0]","[257, 0]",0,"['4.0', 0]","['4.4', 0]","['5.3', 0]","['6.2', 0]","['7.1', 0]","['7.5', 0]","['8.4', 0]","['271', 0]","['299', 0]","['361', 4]","['423', 4]","['486', 0]","['512', 0]","['568', 0]",0,0,0,1,0,0,0,0,[],0,0,0,0
17,,250,0,,2,269949,18,8,Alberto Salgado,1,0,,120297,269949.18,9375430,0,348482297177151280,"[2825.223, 0]",2825.223,115.318,0,1,2146,1,ZESP,000000,fabd00,ad1519,1,B,172.0,es,"[168, 0]","[179, 0]","[0, 0]",1,71.0,3,1,1,45,0,,20,0,381.60,487.07,26.27,"[275, 0]","['1.57', 0]","['45', 0]","[263, 0]","['3.7', 0]","['3.6', 0]","[258, 0]",0,"['3.8', 0]","['4.2', 0]","['4.9', 0]","['5.1', 0]","['6.0', 0]","['6.8', 0]","['8.1', 0]","['272', 0]","['300', 0]","['348', 0]","['361', 0]","['429', 0]","['480', 0]","['576', 0]",0,0,0,1,0,0,0,0,[],0,0,0,0
18,,275,0,,2,269949,19,9,Paolo AC,1,0,,1391073,269949.19,0,0,348482307251345280,"[2825.434, 0]",2825.434,115.529,0,1,2146,1,ZESP,000000,fabd00,ad1519,1,B,180.0,es,"[176, 0]","[189, 0]","[0, 0]",1,68.0,3,1,1,34,0,,10,0,388.63,0,42.27,"[292, 0]","['1.61', 0]","['42', 0]","[283, 0]","['4.2', 0]","['4.0', 0]","[274, 0]",0,"['4.2', 0]","['4.8', 4]","['5.4', 4]","['5.7', 0]","['6.5', 0]","['7.1', 0]","['7.8', 4]","['289', 4]","['324', 4]","['364', 4]","['391', 4]","['444', 4]","['485', 4]","['528', 4]",0,0,0,1,0,0,0,0,[],0,0,0,0
19,,280,0,,2,269949,20,10,LuisM_Ortiz,1,0,,34674,269949.20,6964021,0,348482307469449104,"[2826.182, 0]",2826.182,116.277,0,1,2146,0,ZESP,000000,fabd00,ad1519,1,B,176.0,es,"[166, 0]","[181, 0]","[0, 0]",1,70.0,3,1,1,45,0,,20,0,395.67,374.88,1.33,"[273, 0]","['1.58', 0]","['44', 0]","[262, 0]","['3.7', 0]","['3.6', 0]","[258, 0]",0,"['3.9', 0]","['4.5', 0]","['5.3', 0]","['6.0', 4]","['6.2', 0]","['7.8', 0]","['8.5', 0]","['272', 0]","['314', 0]","['372', 0]","['417', 4]","['431', 0]","['544', 0]","['597', 0]",0,0,0,1,0,0,0,0,[],0,0,0,0
20,,254,0,,2,269949,21,11,Dino Rosso,1,0,,1032409,269949.21,0,163,348482309068995808,"[2827.192, 0]",2827.192,117.287,0,1,0,0,,00dd00,,,0,B,173.0,lv,"[166, 0]","[0, 0]","[0, 0]",1,65.0,3,1,10,46,0,,20,0,402.70,413.87,7.26,"[248, 0]","['1.46', 0]","['44', 0]","[242, 0]","['3.7', 0]","['3.6', 0]","[239, 0]",0,"['3.9', 0]","['4.3', 0]","['4.8', 0]","['4.9', 0]","['4.9', 0]","['4.9', 0]","['4.9', 0]","['252', 0]","['279', 0]","['313', 0]","['316', 0]","['318', 0]","['318', 0]","['318', 0]",0,0,0,1,0,0,0,0,[],0,0,0,0
21,,306,0,,2,269949,22,12,RacsoRJ ,1,0,,616230,269949.22,15172233,0,348482316764551136,"[2828.051, 0]",2828.051,118.146,0,1,2146,1,ZESP,000000,fabd00,ad1519,1,B,190.0,es,"[158, 0]","[171, 0]","[0, 0]",1,79.0,3,1,1,42,0,,20,0,409.74,376.33,0,"[308, 0]","['1.89', 0]","['41', 0]","[298, 0]","['3.8', 0]","['3.6', 0]","[291, 0]",0,"['3.9', 0]","['4.4', 0]","['5.0', 0]","['5.4', 0]","['5.8', 0]","['6.0', 0]","['6.7', 0]","['307', 0]","['345', 0]","['393', 0]","['426', 0]","['462', 0]","['475', 0]","['532', 0]",0,0,0,1,0,0,0,0,[],0,0,0,0
22,,263,0,,2,269949,23,13,Jose Galapero,1,0,,1441451,269949.23,8806602,0,348482348805832288,"[2831.77, 0]",2831.77,121.865,0,1,2146,1,ZESP,000000,fabd00,ad1519,1,B,173.0,es,"[170, 0]","[183, 0]","[0, 0]",1,68.0,3,1,1,40,0,,20,0,416.77,540.78,36.65,"[266, 0]","['1.52', 0]","['44', 0]","[259, 0]","['3.8', 0]","['3.7', 0]","[251, 0]",0,"['3.9', 0]","['4.3', 0]","['4.8', 4]","['4.9', 0]","['5.7', 0]","['5.8', 0]","['6.2', 0]","['265', 0]","['290', 0]","['325', 4]","['334', 0]","['388', 4]","['397', 0]","['424', 0]",0,0,0,1,0,0,0,0,[],0,0,0,0
23,,230,0,,2,269949,24,14,Igortxu2109,1,0,,264732,269949.24,7665068,0,348482422628261008,"[2840.865, 0]",2840.865,130.96,0,1,2146,0,ZESP,000000,fabd00,ad1519,1,B,180.0,es,"[165, 0]","[180, 0]","[0, 0]",1,70.0,3,1,1,47,0,,20,0,423.81,459.37,13.23,"[264, 0]","['1.56', 0]","['44', 0]","[257, 0]","['3.7', 0]","['3.6', 0]","[251, 0]",0,"['3.8', 0]","['4.1', 0]","['4.5', 0]","['5.0', 0]","['5.7', 0]","['6.2', 0]","['6.8', 0]","['265', 0]","['285', 0]","['316', 0]","['350', 0]","['398', 0]","['434', 0]","['475', 0]",0,0,0,1,0,0,0,0,[],0,0,0,0
24,,303,0,,2,269949,25,15,legi11,1,0,,1459976,269949.25,0,0,348482474612989200,"[2846.321, 0]",2846.321,136.416,0,1,2146,0,ZESP,000000,fabd00,ad1519,1,B,185.0,es,"[151, 0]","[174, 0]","[0, 0]",1,76.0,3,1,1,40,0,,20,0,430.84,543.92,26.08,"[313, 0]","['2.01', 0]","['37', 0]","[304, 0]","['4.0', 0]","['3.8', 0]","[293, 0]",0,"['4.1', 0]","['4.9', 0]","['5.2', 0]","['5.6', 0]","['6.8', 0]","['7.6', 0]","['8.3', 0]","['309', 0]","['373', 4]","['398', 0]","['427', 0]","['517', 0]","['581', 0]","['631', 0]",0,0,0,1,0,0,0,0,[],0,0,0,0
25,,312,0,,2,269949,26,16,hellboygffg ,1,0,,204924,269949.26,3655221,0,348482553289220192,"[2855.892, 0]",2855.892,145.987,0,1,2146,1,ZESP,000000,fabd00,ad1519,1,B,185.0,es,"[170, 0]","[183, 0]","[188, 1]",1,75.0,3,1,1,42,0,,20,0,437.88,520.35,32.43,"[284, 0]","['1.61', 0]","['46', 0]","[273, 0]","['3.6', 0]","['3.7', 0]","[278, 0]",0,"['3.9', 0]","['4.2', 0]","['4.8', 0]","['5.3', 0]","['5.6', 0]","['6.0', 0]","['6.1', 0]","['293', 0]","['317', 0]","['363', 4]","['394', 0]","['417', 0]","['450', 0]","['461', 0]",0,0,0,1,0,0,0,0,[],0,0,0,0
26,,276,0,,2,269949,27,17,Bouke Lubach ,1,0,,851007,269949.27,0,0,348482595338618304,"[2861.353, 0]",2861.353,151.448,0,1,4774,0,TSK,000000,e19e11,ffeeee,1,B,184.0,nl,"[171, 0]","[184, 0]","[0, 0]",1,73.0,3,1,1,29,0,,20,0,444.91,459.29,8.37,"[284, 0]","['1.56', 0]","['46', 0]","[266, 0]","['3.6', 0]","['3.7', 0]","[270, 0]",0,"['3.9', 0]","['4.4', 0]","['5.0', 0]","['5.5', 0]","['6.5', 0]","['7.5', 0]","['7.6', 0]","['285', 0]","['320', 0]","['365', 0]","['401', 0]","['476', 0]","['550', 0]","['557', 0]",0,0,0,1,0,0,0,0,[],0,0,0,0
27,,335,0,,2,269949,28,18,Pinillaken,1,0,,119806,269949.28,1607011,0,348482596708655456,"[2861.463, 0]",2861.463,151.558,0,1,2146,0,ZESP,000000,fabd00,ad1519,1,B,181.0,es,"[155, 0]","[172, 0]","[0, 0]",1,85.0,3,1,1,47,0,,20,0,451.94,480.81,29.61,"[316, 0]","['1.99', 0]","['42', 0]","[309, 0]","['3.6', 0]","['3.5', 0]","[303, 0]",0,"['3.8', 4]","['4.2', 4]","['4.6', 0]","['4.7', 0]","['5.3', 4]","['5.8', 0]","['7.8', 4]","['319', 4]","['355', 4]","['393', 4]","['403', 0]","['447', 4]","['494', 0]","['659', 4]",0,0,0,1,0,0,0,0,[],0,0,0,0
28,,268,0,,2,269949,29,19,Fabitri NEO,1,0,,113700,269949.29,11971548,0,348482725969242592,"[2876.613, 0]",2876.613,166.708,0,1,2146,0,ZESP,000000,fabd00,ad1519,1,B,175.0,es,"[157, 0]","[163, 0]","[0, 0]",1,68.0,3,1,1,37,0,,20,0,458.98,516.22,28.20,"[264, 0]","['1.65', 0]","['41', 0]","[259, 0]","['3.8', 0]","['3.7', 0]","[253, 0]",0,"['3.9', 0]","['4.2', 0]","['4.5', 0]","['4.9', 0]","['5.7', 0]","['6.0', 0]","['6.4', 0]","['267', 0]","['285', 0]","['307', 0]","['336', 0]","['385', 0]","['409', 0]","['437', 0]",0,0,0,1,0,0,0,0,[],0,0,0,0
29,,265,0,,2,269949,30,20,R_ritxiper,1,0,,884605,269949.30,5668100,0,348482840705404784,"[2890.838, 0]",2890.838,180.933,0,1,2146,1,ZESP,000000,fabd00,ad1519,1,B,168.0,es,"[169, 0]","[187, 0]","[0, 0]",1,70.0,3,1,1,47,0,,20,0,466.01,506.49,16.27,"[268, 0]","['1.55', 0]","['45', 0]","[262, 0]","['3.7', 0]","['3.7', 0]","[264, 0]",0,"['4.0', 4]","['4.3', 0]","['4.7', 4]","['5.0', 0]","['5.1', 0]","['5.2', 0]","['6.0', 0]","['278', 4]","['298', 0]","['327', 0]","['348', 0]","['360', 0]","['364', 0]","['418', 0]",0,0,0,1,0,0,0,0,[],0,0,0,0
30,,255,0,,2,269949,31,21,Bram Allemeersch,1,0,,589410,269949.31,5620071,0,348483247891134176,"[2937.779, 0]",2937.779,227.874,0,1,35,1,BZR cycling team,f3f300,111111,dd4b39,1,B,179.0,be,"[178, 0]","[198, 0]","[0, 0]",1,73.0,3,1,1,29,0,,20,0,473.05,467.08,4.62,"[270, 0]","['1.44', 0]","['50', 0]","[257, 0]","['3.5', 0]","['3.5', 0]","[256, 0]",0,"['3.7', 4]","['4.2', 4]","['5.2', 0]","['5.3', 4]","['5.5', 0]","['6.5', 0]","['7.8', 0]","['270', 4]","['304', 0]","['380', 4]","['386', 4]","['398', 0]","['474', 0]","['569', 0]",0,0,0,1,0,0,0,0,[],0,0,0,0
31,,243,0,,2,269949,32,22,Daniel Escolano,1,0,,569648,269949.32,27065415,0,348483256050555488,"[2939.1, 0]",2939.1,229.195,0,1,2146,1,ZESP,000000,fabd00,ad1519,1,B,171.0,es,"[175, 0]","[197, 0]","[0, 0]",1,70.0,3,1,1,32,0,,20,0,480.08,430.65,3.63,"[258, 0]","['1.38', 0]","['50', 0]","[242, 0]","['3.5', 0]","['3.3', 0]","[232, 0]",0,"['3.5', 0]","['3.9', 0]","['5.1', 0]","['5.5', 0]","['5.9', 0]","['6.3', 0]","['6.7', 0]","['245', 0]","['273', 0]","['360', 0]","['383', 0]","['415', 0]","['438', 0]","['468', 0]",0,0,0,1,0,0,0,0,[],0,0,0,0
32,,230,0,,2,269949,33,23,David Ávila,1,0,,594655,269949.33,1877938,0,348483379522477584,"[2954.489, 0]",2954.489,244.584,0,1,2146,0,ZESP,000000,fabd00,ad1519,1,B,170.0,es,"[186, 1]","[199, 1]","[0, 0]",1,66.0,3,1,1,39,0,,20,0,487.12,549.49,22.58,"[243, 0]","['1.26', 0]","['52', 0]","[234, 0]","['3.6', 0]","['3.4', 0]","[228, 0]",0,"['3.6', 0]","['4.0', 0]","['4.4', 0]","['4.8', 0]","['5.4', 0]","['5.9', 0]","['8.0', 0]","['240', 4]","['262', 0]","['291', 0]","['316', 0]","['357', 0]","['390', 0]","['525', 0]",0,0,0,1,0,0,0,0,[],0,0,0,0
33,,250,0,,2,269949,34,24,Rakytin ,1,0,,897537,269949.34,5620339,157,348483396437130224,"[2957.119, 0]",2957.119,247.214,0,1,2146,1,ZESP,000000,fabd00,ad1519,0,B,173.0,es,"[173, 0]","[0, 0]","[0, 0]",1,71.0,3,1,10,36,0,,20,0,494.15,502.85,5.98,"[246, 0]","['1.39', 0]","['51', 0]","[240, 0]","['3.4', 0]","['3.3', 0]","[235, 0]",0,"['3.5', 0]","['3.8', 0]","['4.1', 0]","['4.4', 0]","['4.8', 0]","['5.3', 0]","['5.3', 0]","['248', 0]","['269', 0]","['290', 0]","['309', 0]","['341', 0]","['377', 0]","['377', 0]",0,0,0,1,0,0,0,0,[],0,0,0,0
34,,413,0,,2,269949,35,25,Daniel Hednäs [SZ] (Los Carreras),1,0,,200715,269949.35,2237129,0,348483526980108560,"[2972.328, 0]",2972.328,262.423,0,1,32,1,Sz,f3f300,0073b7,f3f300,1,B,210.0,se,"[164, 0]","[179, 0]","[0, 0]",1,110.0,3,1,1,46,0,,20,0,501.19,432.77,0,"[375, 1]","['2.25', 0]","['48', 0]","[369, 1]","['3.4', 0]","['3.2', 0]","[356, 1]",0,"['3.4', 0]","['3.8', 0]","['4.2', 0]","['4.6', 0]","['4.9', 0]","['5.2', 0]","['5.9', 0]","['375', 1]","['414', 1]","['458', 0]","['503', 0]","['536', 0]","['570', 0]","['647', 0]",0,0,0,1,0,0,0,0,[],0,0,0,0
35,,269,0,,2,269949,36,26,L. LuisM ,1,0,,543104,269949.36,12718799,0,348483597755319536,"[2980.622, 0]",2980.622,270.717,0,1,2146,0,ZESP,000000,fabd00,ad1519,1,B,177.0,es,"[158, 0]","[178, 0]","[0, 0]",1,75.0,3,1,1,48,0,,20,0,508.22,515.51,9.49,"[271, 0]","['1.68', 0]","['44', 0]","[266, 0]","['3.6', 0]","['3.4', 0]","[257, 0]",0,"['3.6', 0]","['3.9', 0]","['4.2', 0]","['4.4', 0]","['5.1', 0]","['5.5', 0]","['5.6', 0]","['271', 0]","['294', 0]","['313', 0]","['329', 0]","['386', 0]","['413', 0]","['423', 0]",0,0,0,1,0,0,0,0,[],0,0,0,0
36,,436,0,,2,269949,37,27,Birulas,1,0,,1433687,269949.37,0,0,348483654752708720,"[2986.528, 0]",2986.528,276.623,0,1,2146,0,ZESP,000000,fabd00,ad1519,1,B,176.0,es,"[148, 0]","[164, 0]","[0, 0]",1,85.0,3,1,1,42,0,,20,0,515.26,549.03,16.95,"[309, 0]","['2.05', 0]","['41', 0]","[303, 0]","['3.6', 0]","['3.4', 0]","[291, 0]",0,"['3.6', 0]","['3.8', 0]","['4.0', 0]","['4.5', 0]","['5.4', 0]","['6.0', 0]","['6.7', 0]","['307', 4]","['326', 0]","['341', 0]","['381', 0]","['462', 0]","['513', 0]","['567', 0]",0,0,0,1,0,0,0,0,[],0,0,0,0
37,,290,0,,2,269949,38,28,Rober Galan,1,0,,502298,269949.38,1929072,156,348483737472772864,"[2997.012, 0]",2997.012,287.107,0,1,2146,0,ZESP,000000,fabd00,ad1519,0,B,186.0,es,"[152, 0]","[0, 0]","[0, 0]",1,79.0,3,1,10,48,0,,20,0,522.29,546.89,15.54,"[275, 0]","['1.79', 0]","['44', 0]","[272, 0]","['3.4', 0]","['3.4', 0]","[275, 0]",0,"['3.7', 4]","['3.9', 0]","['4.2', 0]","['4.6', 0]","['5.2', 0]","['5.5', 0]","['5.5', 0]","['290', 0]","['309', 4]","['332', 0]","['360', 0]","['412', 0]","['432', 0]","['432', 0]",0,0,0,1,0,0,0,0,[],0,0,0,0
38,,280,0,,2,269949,39,29,Jacob Nyström(Ifk öst),1,0,,172460,269949.39,8855820,0,348483840761703952,"[3008.084, 0]",3008.084,298.179,0,1,0,1,,00dd00,,,1,B,169.0,se,"[147, 0]","[163, 0]","[0, 0]",1,66.0,3,1,1,42,0,,20,0,529.33,487.13,1.51,"[248, 0]","['1.59', 0]","['41', 0]","[233, 0]","['3.5', 0]","['3.5', 0]","[233, 0]",0,"['3.7', 0]","['4.5', 4]","['4.8', 0]","['5.1', 0]","['6.0', 0]","['6.3', 0]","['7.3', 0]","['246', 0]","['295', 4]","['318', 0]","['337', 0]","['394', 0]","['418', 0]","['479', 0]",0,0,0,1,0,0,0,0,[],0,0,0,0
39,,215,0,,2,269949,40,30,Juan The One,1,0,,937639,269949.40,9829380,0,348483981517361136,"[3026.876, 0]",3026.876,316.971,0,1,2146,1,ZESP,000000,fabd00,ad1519,1,B,171.0,es,"[145, 0]","[168, 0]","[0, 0]",1,61.0,3,1,1,39,0,,20,0,536.36,487.93,0,"[222, 0]","['1.46', 0]","['41', 0]","[212, 0]","['3.5', 0]","['3.3', 0]","[205, 0]",0,"['3.5', 0]","['4.1', 0]","['4.5', 0]","['4.7', 0]","['5.2', 0]","['5.4', 0]","['6.1', 0]","['216', 0]","['252', 0]","['273', 0]","['285', 0]","['316', 0]","['328', 0]","['373', 0]",0,0,0,1,0,0,0,0,[],0,0,0,0
40,,252,0,,2,269949,41,31,Laurens Van Haverburg,1,0,,1280474,269949.41,16348645,153,348484007387303344,"[3030.066, 0]",3030.066,320.161,0,1,0,0,,00dd00,,,0,B,178.0,gb,"[164, 0]","[0, 0]","[0, 0]",1,71.0,3,1,10,49,0,,20,0,543.39,510.55,0,"[240, 0]","['1.42', 0]","['49', 0]","[233, 0]","['3.3', 0]","['3.3', 0]","[234, 0]",0,"['3.5', 0]","['4.0', 0]","['4.1', 0]","['4.3', 0]","['4.7', 0]","['4.8', 0]","['4.8', 0]","['247', 0]","['282', 0]","['294', 0]","['303', 0]","['337', 0]","['339', 0]","['339', 0]",0,0,0,1,0,0,0,0,[],0,0,0,0
41,,260,0,,2,269949,42,32,D. cohe8,1,0,,841839,269949.42,1871030,154,348484032516895520,"[3030.491, 0]",3030.491,320.586,0,1,2146,1,ZESP,000000,fabd00,ad1519,0,B,172.0,es,"[151, 0]","[0, 0]","[0, 0]",1,70.0,3,1,10,38,0,,20,0,550.43,520.95,9.91,"[257, 0]","['1.68', 0]","['41', 0]","[254, 0]","['3.6', 0]","['3.5', 0]","[247, 0]",0,"['3.7', 0]","['4.3', 0]","['4.6', 4]","['4.8', 0]","['5.1', 0]","['5.3', 0]","['5.3', 0]","['261', 0]","['303', 4]","['319', 4]","['334', 0]","['355', 0]","['371', 0]","['371', 0]",0,0,0,1,0,0,0,0,[],0,0,0,0
42,,273,0,,2,269949,43,33,Miguel Ángel,1,0,,538185,269949.43,4749464,0,348484055697297072,"[3036.352, 0]",3036.352,326.447,0,1,2146,0,ZESP,000000,fabd00,ad1519,1,B,170.0,es,"[147, 0]","[162, 0]","[155, 1]",1,71.0,3,1,1,47,0,,20,0,557.46,490.98,0,"[257, 0]","['1.69', 0]","['41', 0]","[249, 0]","['3.5', 0]","['3.4', 0]","[242, 0]",0,"['3.6', 0]","['4.0', 0]","['4.4', 0]","['4.6', 0]","['4.8', 0]","['5.3', 0]","['5.9', 0]","['255', 0]","['281', 0]","['309', 0]","['326', 0]","['344', 0]","['376', 0]","['422', 0]",0,0,0,1,0,0,0,0,[],0,0,0,0
43,,259,0,,2,269949,44,34,Rutger M.,1,0,,345597,269949.44,7579474,0,348484221632352944,"[3055.409, 0]",3055.409,345.504,0,1,0,1,,00dd00,,,1,B,193.0,nl,"[167, 0]","[184, 0]","[0, 0]",1,76.0,3,1,1,31,0,,20,0,564.50,502.03,0,"[270, 0]","['1.57', 0]","['48', 0]","[263, 0]","['3.5', 0]","['3.4', 0]","[265, 0]",0,"['3.7', 0]","['3.9', 0]","['4.4', 0]","['4.7', 0]","['5.0', 0]","['5.2', 0]","['5.6', 0]","['279', 0]","['295', 0]","['335', 0]","['356', 0]","['377', 0]","['398', 0]","['424', 0]",0,0,0,1,0,0,0,0,[],0,0,0,0
44,,230,0,,2,269949,45,35,Paul Crelote 🔰,1,0,,410084,269949.45,0,0,348484249454688272,"[3059.404, 0]",3059.404,349.499,0,1,4509,0,MinusCT,ffffff,0073b7,000000,1,B,173.0,es,"[155, 0]","[168, 0]","[0, 0]",1,65.0,3,1,1,46,0,,20,0,571.53,518.04,0,"[226, 0]","['1.37', 0]","['47', 0]","[212, 0]","['3.3', 0]","['3.3', 0]","[215, 0]",0,"['3.5', 4]","['3.9', 0]","['4.3', 0]","['4.8', 0]","['6.4', 0]","['6.6', 0]","['7.0', 0]","['227', 0]","['253', 0]","['279', 0]","['311', 0]","['418', 0]","['430', 0]","['456', 0]",0,0,0,1,0,0,0,0,[],0,0,0,0
45,,268,0,,2,269949,46,36,Ursus,1,0,,1436417,269949.46,3453439,0,348484344902948432,"[3069.898, 0]",3069.898,359.993,0,1,2146,0,ZESP,000000,fabd00,ad1519,1,B,178.0,es,"[171, 0]","[183, 0]","[0, 0]",1,80.0,3,1,1,43,0,,20,0,578.57,0,4.29,"[284, 0]","['1.60', 0]","['50', 0]","[273, 0]","['3.4', 0]","['3.4', 0]","[278, 0]",0,"['3.7', 4]","['4.0', 0]","['4.4', 0]","['4.7', 0]","['5.1', 0]","['5.5', 0]","['6.5', 0]","['293', 4]","['323', 0]","['351', 0]","['375', 0]","['409', 0]","['440', 0]","['517', 0]",0,0,0,1,0,0,0,0,[],0,0,0,0
46,,200,0,,2,269949,47,37,Maria Victoria Vazquez [REVO] TBR,1,0,,360262,269949.47,8543961,0,348484364029500640,"[3073.047, 0]",3073.047,363.142,0,0,2672,0,REVO,fc00e3,000000,fc00e3,1,B,168.0,es,"[167, 0]","[176, 0]","[172, 0]",1,49.0,3,1,1,48,0,,20,20,585.60,528.10,0,"[178, 0]","['1.04', 0]","['47', 0]","[173, 0]","['3.5', 0]","['3.5', 0]","[173, 0]",0,"['3.7', 0]","['4.1', 0]","['4.5', 0]","['4.8', 0]","['5.5', 0]","['5.6', 0]","['6.1', 0]","['183', 0]","['199', 0]","['220', 0]","['236', 0]","['270', 0]","['274', 0]","['298', 0]",0,0,0,1,0,0,0,0,[],0,0,0,0
47,,274,0,,2,269949,48,38,John Cassidy ,1,0,,427364,269949.48,0,0,348484455422859600,"[3084.238, 0]",3084.238,374.333,0,1,0,1,,00dd00,,,1,B,178.0,gb,"[172, 0]","[187, 0]","[0, 0]",1,75.0,3,1,1,37,0,,20,0,592.64,549.65,1.47,"[251, 0]","['1.44', 0]","['52', 0]","[247, 0]","['3.3', 0]","['3.3', 0]","[251, 0]",0,"['3.5', 0]","['3.7', 0]","['4.0', 0]","['4.4', 0]","['4.7', 0]","['5.0', 0]","['5.9', 0]","['265', 4]","['277', 0]","['302', 0]","['330', 0]","['352', 0]","['378', 0]","['442', 0]",0,0,0,1,0,0,0,0,[],0,0,0,0
48,,328,0,,2,269949,49,39,Tonibike62,1,0,,1104725,269949.49,0,0,348484519637654912,"[3090.315, 0]",3090.315,380.41,0,1,2146,0,ZESP,000000,fabd00,ad1519,1,B,176.0,es,"[154, 0]","[176, 0]","[0, 0]",1,72.0,3,1,1,62,0,,20,0,599.67,508.36,0,"[233, 0]","['1.45', 0]","['49', 0]","[223, 0]","['3.1', 0]","['3.1', 0]","[226, 0]",0,"['3.3', 0]","['3.7', 0]","['4.1', 0]","['4.3', 0]","['4.7', 0]","['5.1', 0]","['7.2', 0]","['238', 0]","['265', 0]","['292', 0]","['310', 0]","['337', 0]","['366', 0]","['518', 0]",0,0,0,1,0,0,0,0,[],0,0,0,0
49,,240,0,,2,269949,50,40,Euge,1,0,,663266,269949.50,0,0,348484581965012896,"[3097.804, 0]",3097.804,387.899,0,1,2146,0,ZESP,000000,fabd00,ad1519,1,B,180.0,es,"[159, 0]","[174, 0]","[0, 0]",1,75.0,3,1,1,56,0,,20,0,0,502.87,0,"[255, 0]","['1.56', 0]","['48', 0]","[248, 0]","['3.3', 0]","['3.4', 0]","[258, 0]",0,"['3.6', 0]","['3.9', 0]","['4.0', 0]","['4.3', 0]","['4.7', 0]","['4.9', 0]","['6.8', 0]","['272', 0]","['292', 0]","['301', 0]","['320', 0]","['350', 0]","['365', 0]","['510', 0]",0,0,0,1,0,0,0,0,[],0,0,0,0
50,,284,0,,2,269949,51,41,EduSnchz ,1,0,,953888,269949.51,2250127,0,348484928968699984,"[3137.434, 0]",3137.434,427.529,0,1,2146,0,ZESP,000000,fabd00,ad1519,1,B,180.0,es,"[171, 0]","[188, 0]","[0, 0]",1,82.0,1,1,1,0,0,,30,0,0,575.79,0,"[263, 0]","['1.48', 0]","['55', 0]","[253, 0]","['3.1', 0]","['3.0', 0]","[248, 0]",0,"['3.2', 0]","['3.7', 0]","['4.2', 4]","['4.3', 4]","['4.4', 4]","['4.8', 0]","['5.4', 0]","['262', 0]","['304', 4]","['344', 4]","['352', 4]","['360', 4]","['396', 0]","['445', 4]",0,0,0,1,0,0,0,0,[],0,0,0,0
51,,235,0,,2,269949,52,42,Alberto Perez ,1,0,,293153,269949.52,0,0,348485022870778608,"[3150.743, 0]",3150.743,440.838,0,1,2146,0,ZESP,000000,fabd00,ad1519,1,B,169.0,es,"[141, 0]","[166, 0]","[0, 0]",1,69.0,3,1,1,47,0,,20,0,0,475.35,0,"[212, 0]","['1.41', 0]","['48', 0]","[199, 0]","['2.9', 0]","['2.9', 0]","[200, 0]",0,"['3.1', 0]","['3.7', 0]","['4.0', 0]","['4.4', 0]","['5.2', 0]","['5.6', 0]","['6.6', 0]","['211', 0]","['253', 0]","['275', 0]","['307', 0]","['357', 0]","['387', 0]","['455', 0]",0,0,0,1,0,0,0,0,[],0,0,0,0
52,,223,0,,2,269949,53,43,Lindy Edwards,1,0,,263401,269949.53,0,0,348485077178101024,"[3157.189, 0]",3157.189,447.284,0,0,0,0,,00dd00,,,1,B,160.0,gb,"[146, 0]","[157, 0]","[0, 0]",1,57.6,3,1,1,0,0,,20,20,0,537.88,0,"[200, 0]","['1.35', 0]","['42', 0]","[197, 0]","['3.4', 0]","['3.3', 0]","[190, 0]",0,"['3.5', 0]","['3.8', 0]","['4.0', 0]","['4.1', 0]","['4.4', 0]","['4.7', 0]","['5.2', 0]","['201', 0]","['221', 0]","['230', 0]","['236', 0]","['251', 0]","['272', 0]","['302', 0]",0,0,0,1,0,0,0,0,[],0,0,0,0
53,,254,0,,2,269949,54,44,Jose Carlos RG,1,0,,968463,269949.54,0,0,348485152583825136,"[3164.119, 0]",3164.119,454.214,0,1,2146,0,ZESP,000000,fabd00,ad1519,1,B,168.0,es,"[101, 0]","[156, 0]","[0, 0]",1,66.0,3,1,1,38,0,,20,0,0,593.15,0,"[234, 0]","['2.25', 0]","['29', 1]","[227, 0]","['3.4', 0]","['3.4', 0]","[228, 0]",0,"['3.7', 4]","['3.9', 4]","['4.2', 4]","['4.5', 0]","['5.3', 4]","['5.6', 4]","['6.0', 0]","['241', 4]","['257', 4]","['276', 4]","['299', 4]","['349', 4]","['367', 4]","['396', 0]",0,0,0,1,0,0,0,0,[],0,0,0,0
54,,260,0,,2,269949,55,45,Xandro82,1,0,,1498564,269949.55,0,4,348485408411205280,"[3193.74, 0]",3193.74,483.835,0,1,2146,0,ZESP,000000,fabd00,ad1519,1,B,185.0,es,"[173, 0]","[184, 0]","[0, 0]",1,79.0,3,1,1,37,0,,20,0,0,591.65,0,"[262, 0]","['1.47', 0]","['53', 0]","[255, 0]","['3.2', 0]","['3.3', 0]","[263, 0]",0,"['3.5', 0]","['3.9', 0]","['4.2', 0]","['4.6', 0]","['4.8', 0]","['5.3', 0]","['6.8', 0]","['277', 4]","['311', 4]","['332', 0]","['361', 0]","['381', 0]","['422', 0]","['541', 4]",0,0,0,1,0,0,0,0,[],0,0,0,0
55,,279,0,,2,269949,56,46,AlfonsoDT,1,0,,1478045,269949.56,0,0,348485906971331696,"[3254.89, 0]",3254.89,544.985,0,1,2146,0,ZESP,000000,fabd00,ad1519,1,B,190.0,es,"[173, 0]","[185, 0]","[0, 0]",1,86.0,3,1,1,44,0,,20,0,0,582.31,0,"[268, 0]","['1.50', 0]","['57', 0]","[260, 0]","['3.0', 0]","['3.1', 0]","[271, 0]",0,"['3.3', 0]","['3.6', 0]","['4.2', 4]","['4.8', 4]","['5.8', 0]","['7.3', 0]","['10.1', 4]","['286', 0]","['309', 0]","['361', 4]","['410', 4]","['503', 4]","['632', 4]","['868', 4]",0,0,0,1,0,0,0,0,[],0,0,0,0
56,,209,0,,2,269949,57,47,manolo garcia,1,0,,577557,269949.57,0,0,348486040291479888,"[3271.665, 0]",3271.665,561.76,0,1,2146,0,ZESP,000000,fabd00,ad1519,1,B,164.0,es,"[151, 0]","[174, 0]","[0, 0]",1,61.0,3,1,1,33,0,,20,0,0,544.48,0,"[197, 0]","['1.26', 0]","['48', 0]","[190, 0]","['3.1', 0]","['3.0', 0]","[187, 0]",0,"['3.2', 0]","['3.7', 0]","['4.0', 0]","['4.2', 0]","['4.7', 0]","['5.5', 0]","['6.1', 4]","['197', 0]","['226', 0]","['244', 0]","['256', 0]","['288', 4]","['338', 4]","['371', 4]",0,0,0,1,0,0,0,0,[],0,0,0,0
57,,287,0,,3,269949,58,1,Mikel Marinelarena,1,0,,219521,269949.58,2429018,0,348484872152657440,"[3132.205, 0]",3132.205,0.0,0,1,2146,1,ZESP,000000,fabd00,ad1519,1,C,182.0,vu,"[142, 0]","[174, 0]","[0, 0]",1,82.0,3,1,1,35,0,,30,0,526.27,556.90,14.45,"[279, 0]","['1.85', 0]","['44', 0]","[262, 0]","['3.2', 0]","['3.0', 0]","[253, 0]",0,"['3.3', 0]","['3.9', 0]","['4.2', 0]","['5.0', 0]","['6.9', 0]","['7.5', 0]","['7.9', 0]","['267', 0]","['322', 4]","['344', 0]","['413', 0]","['564', 0]","['611', 0]","['644', 0]",0,0,0,1,0,0,0,0,[],0,0,0,0
58,,222,0,,3,269949,59,2,Fco Ripoll ,1,0,,1117319,269949.59,0,0,348485111118409216,"[3142.764, 0]",3142.764,10.559,0,1,2146,0,ZESP,000000,fabd00,ad1519,1,C,163.0,es,"[155, 0]","[168, 0]","[0, 0]",1,65.0,3,1,1,47,0,,30,0,533.47,563.35,13.31,"[211, 0]","['1.28', 0]","['50', 0]","[199, 0]","['3.1', 0]","['2.9', 0]","[193, 0]",0,"['3.1', 0]","['3.7', 0]","['4.2', 0]","['4.6', 0]","['5.6', 0]","['6.0', 0]","['6.3', 0]","['204', 0]","['242', 0]","['276', 0]","['300', 0]","['362', 0]","['388', 0]","['410', 0]",0,0,0,1,0,0,0,0,[],0,0,0,0
59,,243,0,,3,269949,60,3,Piwilompa ,1,0,,1395769,269949.60,10601918,0,348485105523207600,"[3159.471, 0]",3159.471,27.266,0,1,2146,0,ZESP,000000,fabd00,ad1519,1,C,186.0,es,"[163, 0]","[179, 0]","[0, 0]",1,79.0,3,1,1,39,0,,30,0,540.67,576.91,11.87,"[261, 0]","['1.53', 0]","['51', 0]","[250, 0]","['3.2', 0]","['3.0', 0]","[242, 0]",0,"['3.2', 0]","['3.7', 0]","['4.0', 0]","['4.5', 0]","['5.8', 4]","['6.2', 4]","['6.3', 0]","['255', 4]","['296', 4]","['318', 4]","['356', 0]","['458', 4]","['487', 4]","['499', 0]",0,0,0,1,0,0,0,0,[],0,0,0,0
60,,252,0,,3,269949,61,4,M. Therkelsen,1,0,,414119,269949.61,0,0,348485197342217376,"[3171.252, 0]",3171.252,39.047,0,1,0,0,,00dd00,,,1,C,176.0,dk,"[173, 0]","[186, 0]","[0, 0]",1,75.0,3,1,1,41,0,,20,0,547.87,0,10.43,"[248, 0]","['1.38', 0]","['54', 0]","[239, 0]","['3.2', 0]","['3.3', 0]","[249, 0]",0,"['3.5', 0]","['3.8', 4]","['4.1', 0]","['4.2', 0]","['5.2', 0]","['5.4', 0]","['6.0', 0]","['263', 0]","['282', 4]","['304', 0]","['318', 0]","['390', 0]","['404', 0]","['449', 0]",0,0,0,1,0,0,0,0,[],0,0,0,0
61,,219,0,,3,269949,62,5,Sgarcía,1,0,,1486115,269949.62,0,0,348485635658581056,"[3221.334, 0]",3221.334,89.129,0,1,2146,0,ZESP,000000,fabd00,ad1519,1,C,179.0,es,"[175, 0]","[188, 0]","[0, 0]",1,70.0,3,1,1,41,0,,30,0,555.07,0,8.99,"[225, 0]","['1.26', 0]","['55', 0]","[221, 0]","['3.2', 0]","['3.2', 0]","[227, 0]",0,"['3.4', 0]","['3.6', 0]","['3.7', 0]","['3.9', 0]","['4.2', 0]","['4.4', 0]","['5.2', 0]","['239', 4]","['253', 4]","['261', 4]","['274', 4]","['293', 0]","['305', 0]","['365', 0]",0,0,0,1,0,0,0,0,[],0,0,0,0
62,,210,0,,3,269949,63,6,Manu Domínguez,1,0,,1445769,269949.63,8896618,167,348485835564295056,"[3243.96, 0]",3243.96,111.755,0,1,2146,0,ZESP,000000,fabd00,ad1519,0,C,170.0,es,"[164, 0]","[0, 0]","[0, 0]",1,74.0,3,1,10,46,0,,30,0,562.27,589.18,7.55,"[217, 0]","['1.29', 0]","['57', 0]","[212, 0]","['2.9', 0]","['2.9', 0]","[218, 0]",0,"['3.1', 0]","['3.3', 4]","['3.4', 0]","['3.6', 0]","['3.8', 0]","['3.9', 0]","['3.9', 0]","['230', 4]","['243', 4]","['255', 0]","['269', 0]","['281', 0]","['286', 0]","['286', 0]",0,0,0,1,0,0,0,0,[],0,0,0,0
63,,243,0,,3,269949,64,7,Emma KoppeCCA,1,0,,439457,269949.64,0,200,348486142464199712,"[3283.842, 0]",3283.842,151.637,0,0,0,0,,00dd00,,,0,C,175.0,gb,"[146, 0]","[0, 0]","[166, 0]",1,54.4,3,1,10,42,0,,30,20,569.47,571.83,6.11,"[187, 0]","['1.25', 0]","['43', 0]","[183, 0]","['3.4', 0]","['3.3', 0]","[182, 0]",0,"['3.5', 0]","['3.9', 0]","['4.5', 0]","['4.7', 0]","['5.0', 0]","['5.4', 0]","['5.4', 0]","['192', 0]","['213', 0]","['243', 0]","['256', 0]","['274', 0]","['294', 0]","['294', 0]",0,0,0,1,0,0,0,0,[],0,0,0,0
64,,194,0,,3,269949,65,8,Chusky ,1,0,,1358249,269949.65,21674935,0,348486491503113984,"[3326.002, 0]",3326.002,193.797,0,1,2146,0,ZESP,000000,fabd00,ad1519,1,C,165.0,es,"[159, 0]","[177, 0]","[0, 0]",1,67.0,3,1,1,30,0,,30,0,576.67,557.39,0,"[191, 0]","['1.16', 0]","['57', 0]","[184, 0]","['2.8', 0]","['2.7', 0]","[182, 0]",0,"['2.9', 0]","['3.3', 4]","['3.5', 0]","['3.8', 0]","['4.4', 0]","['5.0', 0]","['6.2', 0]","['192', 0]","['218', 0]","['237', 0]","['253', 0]","['297', 0]","['334', 0]","['418', 0]",0,0,0,1,0,0,0,0,[],0,0,0,0
65,,209,0,,3,269949,66,9,J Delgado57,1,0,,1378289,269949.66,0,0,348486572129231936,"[3334.046, 0]",3334.046,201.841,0,1,2146,0,ZESP,000000,fabd00,ad1519,1,C,168.0,es,"[154, 0]","[183, 0]","[0, 0]",1,68.0,1,1,1,31,0,,30,0,583.87,592.65,3.23,"[207, 0]","['1.30', 0]","['52', 0]","[200, 0]","['2.9', 0]","['2.8', 0]","[195, 0]",0,"['3.0', 0]","['3.5', 0]","['3.9', 0]","['4.5', 0]","['5.2', 0]","['5.3', 0]","['5.7', 0]","['206', 0]","['238', 0]","['266', 0]","['305', 0]","['354', 0]","['363', 0]","['389', 0]",0,0,0,1,0,0,0,0,[],0,0,0,0
66,,221,0,,3,269949,67,10,Jota ,1,0,,129224,269949.67,813369,0,348486592359348720,"[3336.664, 0]",3336.664,204.459,0,1,2146,1,ZESP,000000,fabd00,ad1519,1,C,168.0,es,"[144, 0]","[186, 0]","[0, 0]",1,64.0,3,1,1,47,0,,30,0,591.07,0,1.79,"[188, 0]","['1.25', 0]","['51', 0]","[180, 0]","['2.8', 0]","['2.7', 0]","[173, 0]",0,"['2.9', 0]","['3.3', 4]","['3.7', 4]","['3.9', 0]","['4.5', 4]","['4.9', 4]","['5.3', 4]","['183', 0]","['210', 4]","['235', 4]","['252', 4]","['285', 4]","['311', 4]","['339', 4]",0,0,0,1,0,0,0,0,[],0,0,0,0
67,,252,0,,3,269949,68,11,Dave A,1,0,,409520,269949.68,17653170,0,348486683999708992,"[3348.492, 0]",3348.492,216.287,0,1,4509,0,MinusCT,ffffff,0073b7,000000,1,C,182.0,es,"[161, 0]","[184, 0]","[0, 0]",1,86.0,3,1,1,41,0,,30,0,598.28,584.72,0,"[229, 0]","['1.29', 0]","['66', 0]","[208, 0]","['2.4', 0]","['2.4', 0]","[207, 0]",0,"['2.5', 0]","['2.9', 0]","['3.6', 0]","['4.1', 0]","['4.7', 0]","['6.8', 0]","['8.9', 0]","['218', 0]","['247', 0]","['311', 0]","['356', 0]","['400', 0]","['589', 0]","['763', 0]",0,0,0,1,0,0,0,0,[],0,0,0,0
68,,301,0,,3,269949,69,12,NikoAmor,1,0,,1520875,269949.69,1775104,0,348486760671587136,"[3356.993, 0]",3356.993,224.788,0,1,2146,0,ZESP,000000,fabd00,ad1519,1,C,179.0,es,"[164, 0]","[176, 0]","[0, 0]",1,75.0,3,1,1,38,0,,30,0,0,0,0,"[233, 0]","['1.38', 0]","['54', 0]","[226, 0]","['3.0', 0]","['3.0', 0]","[230, 0]",0,"['3.2', 0]","['3.7', 0]","['4.1', 0]","['4.3', 0]","['4.5', 0]","['4.9', 0]","['5.3', 0]","['243', 4]","['278', 4]","['308', 4]","['324', 0]","['340', 0]","['371', 0]","['401', 0]",0,0,0,1,0,0,0,0,[],0,0,0,0
69,,308,0,,3,269949,70,13,Ernesto Garcia,1,0,,916831,269949.70,1885139,0,348486813527678800,"[3363.881, 0]",3363.881,231.676,0,1,0,1,,00dd00,,,1,C,180.0,es,"[165, 0]","[186, 0]","[0, 0]",1,76.0,3,1,1,34,0,,30,0,0,0,0,"[219, 0]","['1.22', 0]","['62', 0]","[201, 0]","['2.6', 0]","['2.7', 0]","[211, 0]",0,"['2.9', 0]","['3.4', 0]","['4.0', 0]","['4.3', 0]","['4.6', 0]","['6.6', 0]","['8.0', 0]","['223', 4]","['260', 4]","['306', 4]","['329', 0]","['353', 0]","['501', 0]","['610', 0]",0,0,0,1,0,0,0,0,[],0,0,0,0
70,,214,0,,3,269949,71,14,Ryan O'Neill,1,0,,19672,269949.71,0,1,348486865190421232,"[3370.657, 0]",3370.657,238.452,0,1,0,0,,00dd00,,,1,C,180.0,ie,"[163, 0]","[178, 0]","[0, 0]",1,79.0,3,1,1,39,0,,30,0,0,597.04,0,"[221, 0]","['1.31', 0]","['60', 0]","[213, 0]","['2.7', 0]","['2.6', 0]","[207, 0]",0,"['2.8', 0]","['3.1', 0]","['3.5', 0]","['3.8', 0]","['4.3', 0]","['5.1', 0]","['5.7', 0]","['218', 0]","['246', 0]","['275', 0]","['299', 0]","['340', 0]","['402', 0]","['448', 0]",0,0,0,1,0,0,0,0,[],0,0,0,0
71,,220,0,,3,269949,72,15,Toni_Sanz,1,0,,191882,269949.72,3685948,0,348486964119970512,"[3381.171, 0]",3381.171,248.966,0,1,2146,0,ZESP,000000,fabd00,ad1519,1,C,176.0,es,"[157, 0]","[177, 0]","[0, 0]",1,78.0,3,1,1,59,0,,30,0,0,0,0,"[204, 0]","['1.24', 0]","['63', 0]","[194, 0]","['2.5', 0]","['2.5', 0]","[195, 0]",0,"['2.6', 0]","['3.0', 0]","['3.5', 4]","['3.6', 0]","['3.9', 0]","['4.0', 0]","['5.1', 0]","['206', 0]","['235', 0]","['272', 4]","['281', 0]","['301', 0]","['312', 0]","['400', 4]",0,0,0,1,0,0,0,0,[],0,0,0,0
72,,364,0,,3,269949,73,16,lolo lecoiffier27350,1,0,,838929,269949.73,0,0,348487231993920480,"[3410.316, 0]",3410.316,278.111,0,1,0,0,,00dd00,,,1,C,192.0,fr,"[0, 0]","[0, 0]","[0, 0]",0,100.0,3,1,1,40,0,,30,0,0,583.88,0,"[279, 0]","[0, 0]","[0, 0]","[252, 0]","['2.5', 0]","['2.8', 0]","[285, 0]",0,"['3.0', 0]","['3.4', 4]","['3.7', 0]","['3.9', 0]","['5.2', 4]","['5.3', 0]","['5.4', 0]","['301', 4]","['339', 4]","['371', 0]","['392', 0]","['520', 4]","['533', 0]","['538', 0]",0,0,0,0,0,0,0,0,[],0,0,0,0
73,,206,0,,3,269949,74,17,Neroncete,1,0,,1146297,269949.74,24956309,0,348487652523215216,"[3463.647, 0]",3463.647,331.442,0,1,2146,1,ZESP,000000,fabd00,ad1519,1,C,176.0,es,"[0, 0]","[0, 0]","[0, 0]",0,67.0,3,1,1,47,0,,30,0,0,0,0,"[197, 0]","[0, 0]","[0, 0]","[186, 0]","['2.8', 0]","['2.8', 0]","[193, 0]",0,"['3.0', 0]","['3.7', 0]","['3.9', 0]","['4.4', 0]","['5.4', 0]","['6.2', 0]","['7.2', 0]","['204', 0]","['251', 4]","['264', 0]","['298', 0]","['365', 0]","['415', 0]","['480', 0]",0,0,0,1,0,0,0,0,[],0,0,0,0
74,,205,0,,3,269949,75,18,fernando alvarez,1,0,,852715,269949.75,5060660,0,348488032485217728,"[3508.806, 0]",3508.806,376.601,0,1,2146,1,ZESP,000000,fabd00,ad1519,1,C,170.0,es,"[152, 0]","[169, 0]","[0, 0]",1,58.0,3,1,1,52,0,,30,0,0,0,0,"[174, 0]","['1.11', 0]","['52', 0]","[168, 0]","['2.9', 0]","['2.9', 0]","[171, 0]",0,"['3.1', 0]","['3.7', 4]","['4.2', 0]","['4.9', 4]","['5.3', 4]","['5.8', 0]","['6.1', 0]","['181', 4]","['213', 4]","['245', 4]","['282', 4]","['307', 4]","['338', 4]","['356', 4]",0,0,0,1,0,0,0,0,[],0,0,0,0
75,,250,0,,3,269949,76,19,Luis Calleja ,1,0,,280541,269949.76,18664174,0,348488325188389856,"[3543.364, 0]",3543.364,411.159,0,1,2146,0,ZESP,000000,fabd00,ad1519,1,C,179.0,es,"[162, 0]","[177, 0]","[0, 0]",1,70.0,3,1,1,43,0,,30,0,0,0,0,"[198, 0]","['1.19', 0]","['59', 0]","[192, 0]","['2.7', 0]","['2.8', 0]","[202, 0]",0,"['3.0', 0]","['3.3', 0]","['3.6', 0]","['3.9', 0]","['4.6', 0]","['5.7', 0]","['7.3', 0]","['213', 4]","['233', 4]","['253', 0]","['275', 0]","['322', 0]","['398', 0]","['512', 0]",0,0,0,1,0,0,0,0,[],0,0,0,0
76,,176,0,,3,269949,77,20,Sergio Juan,1,0,,737224,269949.77,22288446,0,348488492792778656,"[3563.104, 0]",3563.104,430.899,0,1,2146,0,ZESP,000000,fabd00,ad1519,1,C,176.0,es,"[170, 0]","[183, 0]","[0, 0]",1,76.0,3,1,1,43,0,,30,0,0,586.15,0,"[205, 0]","['1.16', 0]","['65', 0]","[198, 0]","['2.6', 0]","['2.6', 0]","[201, 0]",0,"['2.8', 4]","['3.0', 0]","['3.5', 4]","['3.7', 0]","['4.2', 0]","['5.0', 0]","['5.8', 0]","['212', 4]","['231', 4]","['264', 4]","['283', 4]","['321', 4]","['382', 4]","['441', 0]",0,0,0,1,0,0,0,0,[],0,0,0,0
77,,0,0,,3,269949,78,21,Riky Riz,1,0,,1075667,269949.78,0,0,348489161038215392,"[3643.778, 0]",3643.778,511.573,0,1,0,0,,00dd00,,,1,C,184.0,it,"[0, 0]","[0, 0]","[0, 0]",0,82.0,3,1,1,35,0,,30,0,0,584.86,0,"[241, 0]","[0, 0]","[0, 0]","[215, 0]","['2.6', 0]","['2.9', 0]","[238, 0]",0,"['3.1', 0]","['3.5', 0]","['4.3', 4]","['4.4', 0]","['5.0', 0]","['5.7', 0]","['8.0', 4]","['251', 0]","['291', 0]","['349', 4]","['363', 4]","['411', 0]","['465', 0]","['654', 4]",0,0,0,0,0,0,0,0,[],0,0,0,0
78,,189,0,,3,269949,79,22,Mikael Adolfsson,1,0,,736448,269949.79,0,0,348491082135288272,"[3872.117, 0]",3872.117,739.912,0,1,0,0,,00dd00,,,1,C,173.0,se,"[160, 0]","[175, 0]","[0, 0]",1,76.0,3,1,1,49,0,,40,0,0,0,0,"[186, 0]","['1.12', 0]","['67', 0]","[179, 0]","['2.4', 0]","['2.4', 0]","[188, 0]",0,"['2.6', 0]","['2.7', 0]","['2.9', 0]","['3.2', 0]","['4.2', 0]","['5.3', 0]","['5.9', 0]","['198', 4]","['209', 0]","['217', 0]","['242', 0]","['317', 0]","['400', 0]","['447', 0]",0,0,0,1,0,0,0,0,[],0,0,0,0
79,,265,0,,4,269949,80,1,Zabalain,1,0,,653635,269949.80,487017,0,348488152459090528,"[3522.743, 0]",3522.743,0.0,0,1,2146,0,ZESP,000000,fabd00,ad1519,1,D,175.0,es,"[0, 0]","[0, 0]","[0, 0]",0,87.0,3,1,1,49,0,,40,0,505.99,595.93,18.80,"[222, 0]","[0, 0]","[0, 0]","[206, 0]","['2.4', 0]","['2.3', 0]","[203, 0]",0,"['2.5', 0]","['3.0', 4]","['3.4', 0]","['3.7', 4]","['4.0', 0]","['4.9', 4]","['5.2', 0]","['214', 0]","['261', 4]","['297', 4]","['320', 4]","['351', 4]","['423', 4]","['455', 4]",0,0,0,1,0,0,0,0,[],0,0,0,0
80,,0,0,,4,269949,81,2,BernardTri,1,0,,169217,269949.81,9578416,0,348488149729586288,"[3523.203, 0]",3523.203,0.46,0,1,2146,0,ZESP,000000,fabd00,ad1519,1,D,183.0,es,"[149, 0]","[168, 0]","[0, 0]",1,83.0,3,1,1,50,0,,40,0,519.36,0,16.13,"[221, 0]","['1.41', 0]","['58', 0]","[210, 0]","['2.5', 0]","['2.4', 0]","[206, 0]",0,"['2.6', 0]","['3.1', 0]","['3.5', 4]","['3.6', 0]","['4.3', 4]","['4.6', 4]","['4.8', 4]","['217', 4]","['261', 4]","['288', 4]","['302', 4]","['355', 4]","['380', 4]","['396', 4]",0,0,0,1,0,0,0,0,[],0,0,0,0
81,,220,0,,4,269949,82,3,Kiwi 🥝,1,0,,188436,269949.82,3175888,0,348488711945164000,"[3590.128, 0]",3590.128,67.385,0,1,2146,0,ZESP,000000,fabd00,ad1519,1,D,191.0,es,"[159, 0]","[183, 0]","[0, 0]",1,82.0,3,1,1,28,0,,40,0,546.10,0,10.78,"[213, 0]","['1.30', 0]","['63', 0]","[206, 0]","['2.5', 0]","['2.4', 0]","[202, 0]",0,"['2.6', 4]","['2.9', 0]","['3.4', 0]","['3.9', 0]","['4.6', 0]","['4.8', 0]","['5.2', 4]","['213', 4]","['238', 4]","['281', 4]","['322', 4]","['381', 4]","['394', 4]","['425', 4]",0,0,0,1,0,0,0,0,[],0,0,0,0
82,,250,0,,4,269949,83,4,ignacio  Tama,1,0,,1395199,269949.83,4652119,0,348489774328819744,"[3716.709, 0]",3716.709,193.966,0,1,0,0,,00dd00,,,1,D,186.0,es,"[147, 0]","[159, 0]","[0, 0]",1,84.0,3,1,1,53,0,,40,0,572.84,0,5.43,"[204, 0]","['1.34', 0]","['62', 0]","[197, 0]","['2.4', 0]","['2.3', 0]","[193, 0]",0,"['2.4', 0]","['2.6', 0]","['2.8', 0]","['3.0', 0]","['3.1', 4]","['3.2', 0]","['3.6', 0]","['204', 0]","['216', 0]","['234', 0]","['248', 0]","['258', 0]","['265', 0]","['306', 4]",0,0,0,1,0,0,0,0,[],0,0,0,0
83,,156,0,,4,269949,84,5,olagar,1,0,,1385564,269949.84,0,0,348490605645573472,"[3816.678, 0]",3816.678,293.935,0,1,2146,0,ZESP,000000,fabd00,ad1519,1,D,167.0,es,"[174, 0]","[193, 0]","[0, 0]",1,65.0,3,1,1,35,0,,40,0,586.21,0,2.76,"[151, 0]","['0.83', 0]","['78', 0]","[144, 0]","['2.2', 0]","['2.2', 0]","[143, 0]",0,"['2.3', 0]","['2.7', 0]","['3.2', 0]","['3.5', 0]","['3.9', 0]","['4.1', 0]","['4.2', 0]","['151', 0]","['178', 4]","['211', 4]","['226', 0]","['252', 0]","['269', 0]","['275', 0]",0,0,0,1,0,0,0,0,[],0,0,0,0
84,,194,0,,4,269949,85,6,Jaime Vargas ,1,0,,1482025,269949.85,0,156,348490828866434256,"[3842.751, 0]",3842.751,320.008,0,1,2146,0,ZESP,000000,fabd00,ad1519,0,D,172.0,es,"[153, 0]","[0, 0]","[0, 0]",1,87.0,3,1,10,38,0,,40,0,599.58,0,0.08,"[216, 0]","['1.35', 0]","['64', 0]","[207, 0]","['2.4', 0]","['2.4', 0]","[215, 0]",0,"['2.6', 0]","['2.9', 4]","['3.0', 0]","['3.6', 4]","['4.2', 4]","['4.6', 0]","['4.6', 0]","['227', 4]","['251', 4]","['264', 4]","['312', 4]","['365', 4]","['402', 4]","['402', 4]",0,0,0,1,0,0,0,0,[],0,0,0,0
85,,167,0,,4,269949,86,7,JkSuper7,1,0,,1483620,269949.86,0,0,348492089106992304,"[3992.862, 0]",3992.862,470.119,0,1,2146,0,ZESP,000000,fabd00,ad1519,1,D,169.0,es,"[151, 0]","[175, 0]","[0, 0]",1,69.0,3,1,1,29,0,,40,0,0,0,0,"[163, 0]","['1.05', 0]","['65', 0]","[159, 0]","['2.3', 0]","['2.2', 0]","[157, 0]",0,"['2.4', 0]","['2.6', 0]","['2.9', 0]","['3.1', 0]","['3.5', 0]","['4.5', 0]","['4.9', 0]","['166', 0]","['181', 0]","['200', 0]","['214', 0]","['240', 0]","['311', 0]","['340', 0]",0,0,0,1,0,0,0,0,[],0,0,0,0
86,,182,0,,4,269949,87,8,Terry lowfast,1,0,,1055062,269949.87,0,0,348492258070335888,"[4013.222, 0]",4013.222,490.479,0,1,0,0,,00dd00,,,1,D,173.0,us,"[145, 0]","[169, 0]","[0, 0]",1,77.1,3,1,1,59,0,,40,0,0,0,0,"[172, 0]","['1.12', 0]","['69', 0]","[162, 0]","['2.1', 0]","['2.1', 0]","[165, 0]",0,"['2.3', 0]","['2.6', 0]","['2.9', 0]","['3.4', 4]","['3.6', 0]","['3.6', 0]","['3.9', 0]","['174', 0]","['199', 0]","['220', 0]","['260', 0]","['274', 0]","['279', 0]","['299', 0]",0,0,0,0,0,0,0,0,[],0,0,0,0
87,,204,0,,4,269949,88,9,Piotr lec,1,0,,1406301,269949.88,33702867,0,348492989011697824,"[4100.832, 0]",4100.832,578.089,0,1,25,0,TeamPL,ffffff,ff1800,ff0000,1,D,179.0,pl,"[0, 0]","[0, 0]","[0, 0]",0,85.0,3,1,1,35,0,,40,0,0,0,0,"[178, 0]","[0, 0]","[0, 0]","[172, 0]","['2.0', 0]","['1.9', 0]","[167, 0]",0,"['2.1', 4]","['2.2', 0]","['2.4', 0]","['2.9', 0]","['3.4', 0]","['3.5', 0]","['3.9', 0]","['176', 4]","['191', 0]","['207', 0]","['248', 0]","['291', 0]","['300', 0]","['332', 0]",0,0,0,1,0,0,0,0,[],0,0,0,0
88,,218,0,,4,269949,89,10,Gon Zauer,1,0,,516999,269949.89,0,0,348494107674524336,"[4233.606, 0]",4233.606,710.863,0,1,2146,0,ZESP,000000,fabd00,ad1519,1,D,177.0,es,"[115, 0]","[151, 1]","[184, 0]",1,75.0,3,1,1,40,0,,40,0,0,0,0,"[156, 0]","['1.33', 0]","['56', 0]","[153, 0]","['2.0', 0]","['2.0', 0]","[153, 0]",0,"['2.2', 0]","['2.4', 0]","['2.4', 0]","['2.7', 0]","['2.7', 0]","['2.8', 0]","['3.0', 0]","['162', 0]","['177', 0]","['183', 0]","['206', 0]","['206', 0]","['207', 0]","['225', 0]",0,0,0,1,0,0,0,0,[],0,0,0,0
89,,164,0,,4,269949,90,11,Rominauer,1,0,,659304,269949.90,21201113,3,348498948502104624,"[4810.487, 0]",4810.487,1287.744,0,1,2146,0,ZESP,000000,fabd00,ad1519,1,D,180.0,es,"[135, 0]","[180, 0]","[0, 0]",1,90.0,3,1,1,43,0,,40,0,0,0,0,"[162, 0]","['0.93', 0]","['96', 0]","[126, 0]","['1.4', 0]","['1.7', 0]","[157, 0]",0,"['1.8', 0]","['2.7', 4]","['2.9', 0]","['3.6', 4]","['4.3', 0]","['4.4', 0]","['4.7', 0]","['166', 0]","['242', 4]","['262', 4]","['321', 0]","['384', 0]","['399', 0]","['419', 0]",0,0,0,1,0,0,0,0,[],0,0,0,0
90,,158,0,,4,269949,91,12,yaijo,1,0,,1272114,269949.91,0,0,348499205277396656,"[4841.07, 0]",4841.07,1318.327,0,1,2146,0,ZESP,000000,fabd00,ad1519,1,D,178.0,es,"[154, 0]","[168, 0]","[0, 0]",1,96.0,3,1,1,52,0,,40,0,0,0,0,"[147, 0]","['0.90', 0]","['106', 0]","[139, 0]","['1.5', 0]","['1.4', 0]","[142, 0]",0,"['1.6', 0]","['1.7', 0]","['1.9', 0]","['2.2', 0]","['2.5', 0]","['2.7', 0]","['3.4', 0]","['150', 0]","['165', 0]","['180', 0]","['216', 0]","['236', 0]","['260', 0]","['327', 0]",0,0,0,1,0,0,0,0,[],0,0,0,0
