,DT_RowId,ftp,friend,pt,label,zid,pos,position_in_cat,name,cp,act_id,act_name,zwid,res_id,aid,lag,uid,time,time_gun,gap,vtta,male,tid,topen,tname,tc,tbc,tbd,zeff,category,height,flag,avg_hr,max_hr,hrmax,hrm,weight,power_type,display_pos,src,age,zada,note,div,divw,skill,skill_b,skill_gain,np,hrr,hreff,avg_power,avg_wkg,wkg_ftp,wftp,wkg_guess,wkg1200,wkg300,wkg120,wkg60,wkg30,wkg15,wkg5,w1200,w300,w120,w60,w30,w15,w5,is_guess,upg,penalty,reg,fl,pts,pts_pos,info,info_notes,log,lead,sweep,anal,notes
0,,315,0,,1,300964,1,1,RC Ivany,1,0,,57693,300964.1,1477749,0,3064573463136107101,"[4022.373, 1]",4022.373,0.0,0,1,3999,0,WCG,ffffff,3d3c3c,1e4dba,1,A,171.0,ca,"[148, 0]","[167, 0]","[181, 0]",1,63.0,3,1,1,39,0,,10,0,224.60,220.52,2.52,"[299, 0]","['1.78', 0]","['35', 1]","[263, 0]","['4.2', 0]","['4.8', 0]","[303, 0]",0,"['5.1', 4]","['5.4', 0]","['6.0', 0]","['7.4', 0]","['10.2', 0]","['10.6', 0]","['11.0', 0]","['319', 4]","['343', 0]","['376', 0]","['467', 0]","['645', 0]","['668', 0]","['693', 0]",0,0,0,1,0,0,0,0,[],0,0,0,0,
1,,300,0,,1,300964,2,2,Rowan Barrett 🔰,1,0,,110649,300964.2,2883756,0,3064573463136160057,"[4022.462, 0]",4022.462,0.089,0,1,2105,0,Cannondale/4iiii,0d0d0d,eef2f5,f27a0b,1,A,0.0,ca,"[172, 0]","[195, 0]","[0, 0]",1,52.0,3,1,1,40,1,,5,0,248.03,232.91,0.30,"[261, 0]","['1.39', 0]","['37', 0]","[239, 0]","['4.6', 1]","['5.1', 1]","[269, 0]",0,"['5.5', 1]","['5.8', 1]","['6.6', 1]","['7.3', 0]","['9.2', 0]","['9.8', 0]","['10.1', 0]","['284', 0]","['303', 0]","['343', 0]","['380', 0]","['480', 0]","['512', 0]","['526', 0]",0,0,0,1,0,0,0,0,[],0,0,0,0,
2,,347,0,,1,300964,3,3,Tim Jones,1,0,,58094,300964.3,5661584,0,3064573463136107502,"[4022.598, 0]",4022.598,0.225,0,1,0,0,,00dd00,,,1,A,0.0,gb,"[175, 0]","[202, 1]","[0, 0]",1,70.0,3,1,1,22,0,,0,0,271.46,0,65.71,"[354, 1]","['1.75', 0]","['39', 0]","[307, 0]","['4.4', 0]","['4.9', 0]","[346, 1]",0,"['5.2', 0]","['5.7', 0]","['6.7', 4]","['9.1', 1]","['12.3', 4]","['14.0', 4]","['14.8', 0]","['365', 4]","['401', 4]","['467', 4]","['639', 4]","['860', 4]","['979', 4]","['1037', 4]",0,0,0,1,0,0,0,0,[],0,0,0,0,
3,,346,0,,1,300964,4,4,Ash Beech,1,0,,644482,300964.4,2658913,0,3064573463136693890,"[4022.697, 0]",4022.697,0.324,0,1,4598,0,BLOOD,000000,ff0000,000000,1,A,0.0,gb,"[164, 0]","[190, 0]","[0, 0]",1,67.0,3,1,1,36,2,,5,0,294.89,244.79,0,"[329, 0]","['1.78', 0]","['37', 0]","[292, 0]","['4.4', 0]","['4.9', 0]","[328, 0]",0,"['5.2', 4]","['5.7', 0]","['6.0', 0]","['7.7', 0]","['10.5', 1]","['12.2', 0]","['15.2', 1]","['346', 4]","['385', 4]","['402', 0]","['514', 1]","['701', 1]","['818', 1]","['1021', 1]",0,0,0,1,0,0,0,0,[],0,0,0,0,
4,,295,0,,1,300964,5,5,Beckett Tooley [INC]👽,1,0,,19907,300964.5,0,0,3064573463136069315,"[4157.189, 0]",4157.189,134.816,0,1,975,1,Innovation,000000,52ff33,000000,1,A,0.0,us,"[0, 0]","[0, 0]","[0, 0]",0,0.0,3,1,1,0,0,,10,0,318.33,261.51,0,"[285, 0]","[0, 0]","[0, 0]","[251, 0]","['4.0', 0]","['4.5', 0]","[289, 0]",0,"['4.8', 0]","['5.3', 4]","['5.7', 0]","['6.2', 0]","['9.8', 0]","['13.4', 1]","['16.6', 4]","['305', 4]","['335', 4]","['365', 0]","['395', 0]","['623', 4]","['851', 4]","['1052', 4]",0,0,0,1,0,0,0,0,[],0,0,0,0,
5,,269,0,,1,300964,6,6,Ibon Mujika,1,0,,620026,300964.6,204441,0,3064573463136669434,"[4157.228, 0]",4157.228,134.855,0,1,0,0,,00dd00,,,1,A,0.0,id,"[156, 0]","[180, 0]","[0, 0]",1,61.0,3,1,1,47,0,,10,0,341.76,368.70,10.49,"[272, 0]","['1.63', 0]","['37', 0]","[254, 0]","['4.2', 0]","['4.3', 0]","[266, 0]",0,"['4.6', 0]","['4.8', 0]","['5.3', 0]","['6.7', 0]","['9.5', 0]","['13.2', 4]","['14.6', 0]","['281', 0]","['293', 0]","['326', 0]","['411', 0]","['580', 4]","['804', 4]","['893', 4]",0,0,0,1,0,0,0,0,[],0,0,0,0,
6,,316,0,,1,300964,7,7,Euan Hawkins [Maindy Flyers],1,0,,294428,300964.7,0,0,3064573463136343836,"[4157.403, 0]",4157.403,135.03,0,1,0,0,,00dd00,,,1,A,179.0,gb-wls,"[0, 0]","[0, 0]","[0, 0]",0,62.0,1,1,1,17,0,,5,0,365.19,288.05,0,"[295, 0]","[0, 0]","[0, 0]","[271, 0]","['4.4', 0]","['4.7', 0]","[292, 0]",0,"['5.0', 0]","['5.3', 0]","['6.1', 0]","['8.1', 0]","['11.7', 4]","['14.5', 4]","['15.2', 1]","['308', 0]","['328', 0]","['378', 0]","['505', 4]","['725', 4]","['896', 4]","['944', 4]",0,0,0,0,0,0,0,0,[],0,0,0,0,
7,,280,0,,1,300964,8,8,Ben Locke,1,0,,876920,300964.8,334339,0,3064573463136926328,"[4157.485, 0]",4157.485,135.112,0,1,2861,0,ETG,ffffff,0073b7,ffffff,1,A,0.0,gb-eng,"[165, 0]","[179, 0]","[0, 0]",1,68.0,3,1,1,36,0,,10,0,388.62,322.89,0,"[290, 0]","['1.62', 0]","['42', 0]","[267, 0]","['3.9', 0]","['4.1', 0]","[282, 0]",0,"['4.4', 0]","['5.0', 0]","['5.6', 0]","['6.2', 0]","['9.7', 4]","['11.2', 0]","['12.0', 0]","['297', 0]","['341', 0]","['383', 0]","['421', 0]","['657', 4]","['763', 4]","['817', 4]",0,0,0,1,0,0,0,0,[],0,0,0,0,
8,,299,0,,1,300964,9,9,magomar,1,0,,92730,300964.9,7117519,0,3064573463136142138,"[4158.426, 0]",4158.426,136.053,0,1,2146,0,ZESP,000000,fabd00,ad1519,1,A,0.0,es,"[162, 0]","[0, 0]","[0, 0]",1,68.0,3,1,10,49,0,,10,0,412.05,392.03,11.94,"[0, 0]","['1.73', 0]","['39', 0]","[280, 0]","['4.1', 0]","['4.1', 0]","[0, 0]",1,"['', 0]","['', 0]","['', 0]","['', 0]","['', 0]","['', 0]","['', 0]","['0', 0]","['0', 0]","['0', 0]","['0', 0]","['0', 0]","['0', 0]","['0', 0]",0,0,0,1,0,0,0,0,[],0,0,0,0,
9,,260,0,,1,300964,10,10,Luisete ,1,0,,173997,300964.10,221337,0,3064573463136223405,"[4237.45, 0]",4237.45,215.077,0,1,2146,1,ZESP,000000,fabd00,ad1519,1,A,0.0,es,"[172, 0]","[189, 0]","[0, 0]",1,62.0,3,1,1,39,0,,10,0,435.49,344.94,0,"[268, 0]","['1.50', 0]","['41', 0]","[258, 0]","['4.2', 0]","['4.2', 0]","[266, 0]",0,"['4.5', 0]","['5.0', 0]","['5.6', 0]","['6.1', 0]","['7.9', 0]","['11.1', 0]","['12.0', 0]","['280', 0]","['307', 0]","['349', 0]","['376', 0]","['492', 4]","['690', 4]","['743', 0]",0,0,0,1,0,0,0,0,[],0,0,0,0,
10,,287,0,,1,300964,11,11,D. cohe8 (ZESP 1),1,0,,841839,300964.11,1871030,0,3064573463136891247,"[4238.25, 0]",4238.25,215.877,0,1,2146,1,ZESP,000000,fabd00,ad1519,0,A,0.0,es,"[152, 0]","[0, 0]","[0, 0]",1,70.0,3,1,10,39,0,,20,0,458.92,425.69,0.36,"[0, 0]","['1.82', 0]","['38', 0]","[277, 0]","['4.0', 0]","['4.0', 0]","[0, 0]",1,"['', 0]","['', 0]","['', 0]","['', 0]","['', 0]","['', 0]","['', 0]","['0', 0]","['0', 0]","['0', 0]","['0', 0]","['0', 0]","['0', 0]","['0', 0]",0,0,0,1,0,0,0,0,[],0,0,0,0,
11,,263,0,,1,300964,12,12, montoya ,1,0,,593652,300964.12,0,0,3064573463136643060,"[4238.819, 0]",4238.819,216.446,0,1,2146,1,ZESP,000000,fabd00,ad1519,1,A,0.0,es,"[164, 0]","[194, 0]","[0, 0]",1,62.0,3,1,1,50,0,,10,0,482.35,430.10,0,"[259, 0]","['1.54', 0]","['40', 0]","[253, 0]","['4.1', 0]","['4.1', 0]","[257, 0]",0,"['4.4', 0]","['4.7', 0]","['5.1', 0]","['5.4', 0]","['5.5', 0]","['7.0', 0]","['8.5', 0]","['271', 0]","['289', 0]","['318', 0]","['332', 0]","['340', 0]","['436', 0]","['527', 0]",0,0,0,1,0,0,0,0,[],0,0,0,0,
12,,316,0,,1,300964,13,13,legi11,1,0,,1459976,300964.13,0,0,3064573463137509384,"[4470.978, 0]",4470.978,448.605,0,1,2146,0,ZESP,000000,fabd00,ad1519,1,A,0.0,es,"[162, 0]","[181, 0]","[0, 0]",1,76.0,3,1,1,41,0,,10,0,505.78,470.67,5.78,"[286, 0]","['1.72', 0]","['44', 0]","[278, 0]","['3.7', 0]","['3.7', 0]","[285, 0]",0,"['4.0', 0]","['4.1', 0]","['4.6', 0]","['5.5', 0]","['7.4', 0]","['8.8', 0]","['9.1', 0]","['301', 0]","['315', 0]","['352', 0]","['418', 0]","['561', 0]","['668', 0]","['688', 0]",0,0,0,1,0,0,0,0,[],0,0,0,0,
13,,280,0,,2,300964,14,1,Minyana NEO,1,0,,91920,300964.14,7867457,0,3064573563136141328,"[4158.555, 0]",4158.555,0.0,0,1,2146,0,ZESP,000000,fabd00,ad1519,1,B,0.0,es,"[160, 0]","[177, 0]","[182, 1]",1,68.0,3,1,1,58,0,,20,0,310.30,308.77,3.05,"[283, 0]","['1.65', 0]","['41', 0]","[264, 0]","['3.9', 0]","['4.1', 0]","[280, 0]",0,"['4.3', 0]","['4.8', 0]","['5.4', 0]","['6.3', 0]","['9.0', 0]","['9.3', 0]","['9.8', 0]","['295', 4]","['326', 0]","['365', 0]","['427', 0]","['613', 0]","['633', 0]","['668', 0]",0,0,0,1,0,0,0,0,[],0,0,0,0,
14,,320,0,,2,300964,15,2,Mikel Aristegi,1,0,,274849,300964.15,1539799,0,3064573563136324257,"[4209.775, 0]",4209.775,51.22,0,1,0,1,,00dd00,,,1,B,0.0,sk,"[165, 0]","[181, 0]","[0, 0]",1,75.0,3,1,1,40,0,,10,0,318.56,376.96,13.97,"[304, 0]","['1.74', 0]","['43', 0]","[287, 0]","['3.8', 0]","['4.1', 0]","[313, 0]",0,"['4.4', 4]","['4.9', 0]","['5.4', 0]","['5.7', 0]","['7.4', 4]","['8.7', 4]","['9.1', 0]","['330', 4]","['370', 1]","['407', 0]","['430', 0]","['555', 4]","['651', 4]","['682', 0]",0,0,0,1,0,0,0,0,[],0,0,0,0,
15,,318,0,,2,300964,16,3,Mads Moller,1,0,,40728,300964.16,13718223,0,3064573563136090136,"[4236.499, 0]",4236.499,77.944,0,1,0,1,,00dd00,,,1,B,0.0,dk,"[161, 0]","[178, 0]","[0, 0]",1,79.0,3,1,1,33,0,,20,0,326.82,312.19,0,"[309, 0]","['1.76', 0]","['44', 0]","[284, 0]","['3.6', 0]","['3.9', 0]","[309, 0]",0,"['4.1', 0]","['4.5', 0]","['5.4', 0]","['6.5', 0]","['8.0', 0]","['8.9', 0]","['11.1', 0]","['326', 1]","['357', 0]","['426', 1]","['512', 0]","['630', 0]","['703', 0]","['875', 0]",0,0,0,1,0,0,0,0,[],0,0,0,0,
16,,300,0,,2,300964,17,4,IG,1,0,,1437116,300964.17,8424995,0,3064573563137486524,"[4237.417, 0]",4237.417,78.862,0,1,2146,0,ZESP,000000,fabd00,ad1519,1,B,0.0,es,"[148, 0]","[170, 0]","[0, 0]",1,74.0,3,1,1,35,0,,20,0,335.08,433.22,30.39,"[285, 0]","['1.78', 0]","['41', 0]","[263, 0]","['3.6', 0]","['3.9', 0]","[291, 0]",0,"['4.1', 0]","['4.5', 0]","['5.2', 0]","['6.0', 0]","['8.1', 0]","['9.4', 0]","['10.1', 4]","['307', 4]","['330', 0]","['387', 4]","['446', 4]","['601', 4]","['697', 4]","['747', 4]",0,0,0,1,0,0,0,0,[],0,0,0,0,
17,,323,0,,2,300964,18,5,RacsoRJ,1,0,,616230,300964.18,15172233,0,3064573563136665638,"[4238.016, 0]",4238.016,79.461,0,1,2146,1,ZESP,000000,fabd00,ad1519,1,B,0.0,es,"[154, 0]","[167, 0]","[0, 0]",1,78.0,3,1,1,43,0,,20,0,343.34,365.14,9.00,"[304, 0]","['1.91', 0]","['40', 0]","[294, 0]","['3.8', 0]","['3.9', 0]","[307, 0]",0,"['4.2', 4]","['4.3', 0]","['4.6', 0]","['5.2', 0]","['6.4', 0]","['7.8', 0]","['8.1', 0]","['324', 4]","['333', 0]","['357', 0]","['408', 0]","['501', 0]","['612', 0]","['635', 0]",0,0,0,1,0,0,0,0,[],0,0,0,0,
18,,269,0,,2,300964,19,6,Jose Galapero,1,0,,1441451,300964.19,8806602,0,3064573563137490859,"[4368.963, 0]",4368.963,210.408,0,1,2146,1,ZESP,000000,fabd00,ad1519,1,B,0.0,es,"[170, 0]","[192, 0]","[0, 0]",1,68.0,3,1,1,41,0,,20,0,351.60,468.12,49.68,"[267, 0]","['1.52', 0]","['44', 0]","[259, 0]","['3.8', 0]","['3.9', 0]","[265, 0]",0,"['4.1', 0]","['4.3', 0]","['4.8', 0]","['6.1', 4]","['7.9', 0]","['8.8', 0]","['9.1', 0]","['279', 0]","['293', 0]","['327', 0]","['412', 4]","['539', 4]","['599', 4]","['622', 4]",0,0,0,1,0,0,0,0,[],0,0,0,0,
19,,330,0,,2,300964,20,7,Carlos Merino,1,0,,211627,300964.20,132176,0,3064573563136261035,"[4370.318, 0]",4370.318,211.763,0,1,1,0,PTz,ffffff,403d3a,e3680f,1,B,0.0,pt,"[158, 0]","[167, 0]","[173, 0]",1,78.0,3,1,1,39,0,,20,0,359.86,514.06,48.03,"[312, 0]","['1.95', 1]","['40', 0]","[308, 1]","['4.0', 0]","['4.0', 0]","[317, 0]",0,"['4.3', 4]","['4.4', 4]","['4.5', 0]","['4.7', 0]","['5.2', 0]","['6.1', 0]","['7.9', 0]","['334', 4]","['341', 4]","['349', 0]","['366', 0]","['403', 0]","['472', 0]","['613', 0]",0,0,0,1,0,0,0,0,[],0,0,0,0,
20,,335,0,,2,300964,21,8,Pinillaken,1,0,,119806,300964.21,1607011,0,3064573563136169214,"[4371.033, 0]",4371.033,212.478,0,1,2146,0,ZESP,000000,fabd00,ad1519,1,B,0.0,es,"[162, 0]","[175, 0]","[0, 0]",1,85.0,3,1,1,48,0,,20,0,368.12,430.35,20.58,"[309, 0]","['1.85', 0]","['45', 0]","[300, 0]","['3.5', 0]","['3.7', 0]","[321, 0]",0,"['4.0', 4]","['4.2', 0]","['4.6', 0]","['4.8', 0]","['5.2', 0]","['5.9', 0]","['6.5', 0]","['338', 4]","['358', 4]","['391', 0]","['410', 0]","['442', 0]","['499', 0]","['549', 0]",0,0,0,1,0,0,0,0,[],0,0,0,0,
21,,200,0,,2,300964,22,9,Bongo Hjeilm,1,0,,42358,300964.22,2496179,0,3064573563136091766,"[4416.319, 0]",4416.319,257.764,0,1,963,0,CHOCK,ffffff,000000,575757,1,B,0.0,se,"[158, 0]","[173, 0]","[0, 0]",1,56.0,3,1,1,40,0,,20,0,376.38,367.27,1.24,"[214, 0]","['1.28', 0]","['43', 0]","[202, 0]","['3.6', 0]","['3.9', 0]","[219, 0]",0,"['4.1', 0]","['4.3', 0]","['4.5', 0]","['4.9', 0]","['5.5', 0]","['6.5', 0]","['7.3', 0]","['231', 0]","['239', 0]","['250', 0]","['272', 0]","['309', 0]","['366', 0]","['410', 0]",0,0,0,1,0,0,0,0,[],0,0,0,0,
22,,280,0,,2,300964,23,10,LuisM_Ortiz,1,0,,34674,300964.23,6964021,0,3064573563136084082,"[4439.152, 0]",4439.152,280.597,0,1,2146,0,ZESP,000000,fabd00,ad1519,1,B,0.0,es,"[161, 0]","[174, 0]","[0, 0]",1,70.0,3,1,1,46,0,,20,0,384.64,370.52,0.86,"[261, 0]","['1.56', 0]","['44', 0]","[251, 0]","['3.6', 0]","['3.8', 0]","[267, 0]",0,"['4.0', 0]","['4.2', 0]","['4.4', 0]","['5.1', 0]","['6.6', 0]","['9.2', 0]","['10.0', 0]","['282', 0]","['293', 0]","['308', 0]","['354', 0]","['463', 0]","['644', 0]","['700', 0]",0,0,0,1,0,0,0,0,[],0,0,0,0,
23,,225,0,,2,300964,24,11,Juan The One,1,0,,937639,300964.24,9829380,0,3064573563136987047,"[4439.87, 0]",4439.87,281.315,0,1,2146,1,ZESP,000000,fabd00,ad1519,1,B,0.0,es,"[146, 0]","[157, 1]","[0, 0]",1,61.0,3,1,1,40,0,,20,0,392.90,421.80,9.21,"[233, 0]","['1.53', 0]","['39', 0]","[224, 0]","['3.7', 0]","['3.8', 0]","[231, 0]",0,"['4.0', 0]","['4.1', 0]","['4.4', 0]","['4.6', 0]","['5.6', 0]","['7.1', 0]","['8.2', 0]","['244', 0]","['250', 0]","['269', 0]","['282', 0]","['342', 0]","['433', 0]","['498', 0]",0,0,0,1,0,0,0,0,[],0,0,0,0,
24,,291,0,,2,300964,25,12,Marcin Wierzejewski,1,0,,1530304,300964.25,0,2,3064573563137579712,"[4440.101, 0]",4440.101,281.546,0,1,0,0,,00dd00,,,1,B,0.0,pl,"[0, 0]","[0, 0]","[0, 0]",1,0.0,3,1,1,0,0,,20,0,401.15,420.12,14.99,"[274, 0]","['1.66', 0]","['43', 0]","[267, 0]","['3.7', 0]","['3.9', 0]","[281, 0]",0,"['4.1', 0]","['4.3', 0]","['4.6', 0]","['4.8', 0]","['5.0', 0]","['5.9', 0]","['7.7', 0]","['296', 0]","['311', 0]","['332', 0]","['346', 0]","['359', 0]","['425', 0]","['554', 0]",0,0,0,0,0,0,0,0,[],0,0,0,0,
25,,291,0,,2,300964,26,13,R ens,1,0,,1001707,300964.26,7646573,0,3064573563137051115,"[4441.821, 0]",4441.821,283.266,0,1,0,0,,00dd00,,,0,B,0.0,nl,"[161, 0]","[0, 0]","[0, 0]",1,75.0,3,1,10,37,0,,20,0,409.41,548.25,38.12,"[0, 0]","['1.69', 0]","['44', 0]","[272, 0]","['3.6', 0]","['3.6', 0]","[0, 0]",1,"['', 0]","['', 0]","['', 0]","['', 0]","['', 0]","['', 0]","['', 0]","['0', 0]","['0', 0]","['0', 0]","['0', 0]","['0', 0]","['0', 0]","['0', 0]",0,0,0,1,0,0,0,0,[],0,0,0,0,
26,,292,0,,2,300964,27,14,v.m. garcia  ,1,0,,270944,300964.27,0,0,3064573563136320352,"[4442.071, 0]",4442.071,283.516,0,1,2146,0,ZESP,000000,fabd00,ad1519,1,B,161.0,es,"[155, 0]","[179, 0]","[0, 0]",1,72.0,3,1,1,36,0,,20,0,417.67,406.41,7.24,"[261, 0]","['1.58', 0]","['45', 0]","[245, 0]","['3.4', 0]","['3.7', 0]","[270, 0]",0,"['4.0', 0]","['4.2', 0]","['4.8', 0]","['4.8', 0]","['4.9', 0]","['5.2', 0]","['5.3', 0]","['285', 0]","['301', 0]","['346', 0]","['348', 0]","['352', 0]","['373', 0]","['379', 0]",0,0,0,1,0,0,0,0,[],0,0,0,0,
27,,269,0,,2,300964,28,15,T Luizao,1,0,,1089630,300964.28,33145446,0,3064573563137139038,"[4470.677, 0]",4470.677,312.122,0,1,0,0,,00dd00,,,1,B,0.0,es,"[169, 0]","[180, 0]","[0, 0]",1,69.0,3,1,1,36,0,,20,0,425.93,487.48,34.81,"[258, 0]","['1.47', 0]","['47', 0]","[248, 0]","['3.6', 0]","['3.7', 0]","[260, 0]",0,"['4.0', 0]","['4.2', 0]","['4.7', 0]","['5.8', 0]","['8.1', 0]","['10.8', 0]","['12.2', 0]","['274', 0]","['290', 0]","['323', 0]","['400', 0]","['560', 4]","['748', 4]","['845', 4]",0,0,0,1,0,0,0,0,[],0,0,0,0,
28,,268,0,,2,300964,29,16,Fabitri NEO,1,0,,113700,300964.29,11971548,0,3064573563136163108,"[4470.991, 0]",4470.991,312.436,0,1,2146,0,ZESP,000000,fabd00,ad1519,1,B,0.0,es,"[149, 0]","[158, 0]","[0, 0]",1,68.0,3,1,1,38,0,,20,0,434.19,419.89,4.66,"[249, 0]","['1.64', 0]","['41', 0]","[244, 0]","['3.6', 0]","['3.6', 0]","[250, 0]",0,"['3.9', 0]","['4.0', 0]","['4.3', 0]","['5.0', 0]","['7.0', 0]","['9.2', 0]","['9.7', 0]","['264', 0]","['274', 0]","['292', 0]","['343', 0]","['478', 4]","['627', 4]","['662', 4]",0,0,0,1,0,0,0,0,[],0,0,0,0,
29,,230,0,,2,300964,30,17,Igortxu2109 ,1,0,,264732,300964.30,7665068,0,3064573563136314140,"[4471.155, 0]",4471.155,312.6,0,1,2146,0,ZESP,000000,fabd00,ad1519,1,B,0.0,es,"[168, 0]","[175, 0]","[0, 0]",1,70.0,3,1,1,48,0,,20,0,442.45,437.14,5.39,"[252, 0]","['1.47', 0]","['47', 0]","[247, 0]","['3.5', 0]","['3.6', 0]","[256, 0]",0,"['3.9', 4]","['4.1', 0]","['4.2', 0]","['4.5', 0]","['5.6', 0]","['7.2', 0]","['7.6', 0]","['270', 4]","['287', 0]","['297', 0]","['316', 0]","['395', 0]","['502', 0]","['529', 0]",0,0,0,1,0,0,0,0,[],0,0,0,0,
30,,273,0,,2,300964,31,18,Miguel Ángel,1,0,,538185,300964.31,4749464,0,3064573563136587593,"[4471.322, 0]",4471.322,312.767,0,1,2146,0,ZESP,000000,fabd00,ad1519,1,B,0.0,es,"[149, 0]","[164, 0]","[155, 1]",1,71.0,3,1,1,48,0,,20,0,450.71,481.09,14.21,"[252, 0]","['1.63', 0]","['43', 0]","[243, 0]","['3.4', 0]","['3.6', 0]","[262, 0]",0,"['3.9', 4]","['4.0', 0]","['4.2', 0]","['4.4', 0]","['5.3', 0]","['6.8', 0]","['7.5', 0]","['276', 4]","['282', 0]","['300', 0]","['312', 0]","['378', 0]","['484', 4]","['536', 4]",0,0,0,1,0,0,0,0,[],0,0,0,0,
31,,266,0,,2,300964,32,19,R_ritxiper,1,0,,884605,300964.32,5668100,0,3064573563136934013,"[4471.59, 0]",4471.59,313.035,0,1,2146,1,ZESP,000000,fabd00,ad1519,1,B,0.0,es,"[167, 0]","[179, 0]","[0, 0]",1,70.0,3,1,1,48,0,,20,0,458.97,470.18,10.86,"[253, 0]","['1.48', 0]","['47', 0]","[247, 0]","['3.5', 0]","['3.8', 0]","[266, 0]",0,"['4.0', 4]","['4.4', 0]","['4.7', 0]","['4.9', 0]","['5.0', 0]","['5.7', 0]","['6.4', 0]","['280', 4]","['311', 4]","['331', 4]","['342', 0]","['353', 0]","['398', 0]","['447', 0]",0,0,0,1,0,0,0,0,[],0,0,0,0,
32,,267,0,,2,300964,33,20, Charly ,1,0,,1592472,300964.33,16897382,0,3064573563137641880,"[4531.657, 0]",4531.657,373.102,0,1,2146,0,ZESP,000000,fabd00,ad1519,1,B,0.0,es,"[163, 0]","[172, 0]","[0, 0]",1,70.0,3,1,1,36,0,,20,0,467.23,595.42,26.55,"[270, 0]","['1.62', 0]","['43', 0]","[264, 0]","['3.8', 0]","['3.8', 0]","[266, 0]",0,"['4.0', 0]","['4.2', 0]","['4.5', 0]","['4.6', 0]","['5.4', 0]","['6.9', 0]","['9.3', 0]","['281', 4]","['296', 4]","['315', 0]","['322', 0]","['379', 0]","['486', 0]","['653', 4]",0,0,0,1,0,0,0,0,[],0,0,0,0,
33,,316,0,,2,300964,34,21,Jorghotten,1,0,,265523,300964.34,9273391,0,3064573563136314931,"[4556.777, 0]",4556.777,398.222,0,1,2146,0,ZESP,000000,fabd00,ad1519,1,B,0.0,es,"[163, 0]","[172, 0]","[0, 0]",1,78.0,3,1,1,44,0,,20,0,475.49,479.53,24.90,"[283, 0]","['1.69', 0]","['46', 0]","[276, 0]","['3.5', 0]","['3.6', 0]","[287, 0]",0,"['3.9', 0]","['4.0', 0]","['4.5', 0]","['4.7', 0]","['5.1', 0]","['6.1', 0]","['8.4', 0]","['303', 0]","['312', 0]","['352', 0]","['363', 0]","['395', 0]","['477', 0]","['657', 0]",0,0,0,1,0,0,0,0,[],0,0,0,0,
34,,261,0,,2,300964,35,22,Nano,1,0,,1368240,300964.35,13859894,0,3064573563137417648,"[4567.44, 0]",4567.44,408.885,0,1,2146,0,ZESP,000000,fabd00,ad1519,1,B,0.0,es,"[171, 0]","[184, 0]","[0, 0]",1,68.0,3,1,1,41,0,,20,0,483.75,368.56,0,"[247, 0]","['1.36', 0]","['49', 0]","[233, 0]","['3.4', 0]","['3.7', 0]","[254, 0]",0,"['3.9', 0]","['4.4', 0]","['4.7', 0]","['5.0', 0]","['5.7', 0]","['8.1', 0]","['9.4', 0]","['268', 0]","['298', 0]","['317', 0]","['340', 0]","['389', 0]","['548', 0]","['640', 0]",0,0,0,1,0,0,0,0,[],0,0,0,0,
35,,282,0,,2,300964,36,23,Ursus ,1,0,,1436417,300964.36,3453439,0,3064573563137485825,"[4567.455, 0]",4567.455,408.9,0,1,2146,0,ZESP,000000,fabd00,ad1519,1,B,0.0,es,"[168, 0]","[182, 0]","[0, 0]",1,79.0,3,1,1,44,0,,20,0,492.01,561.27,21.60,"[289, 0]","['1.66', 0]","['47', 0]","[279, 0]","['3.5', 0]","['3.6', 0]","[288, 0]",0,"['3.8', 0]","['4.0', 0]","['4.3', 0]","['4.7', 0]","['5.8', 0]","['6.8', 0]","['7.7', 0]","['304', 4]","['314', 0]","['338', 0]","['375', 0]","['456', 0]","['541', 0]","['608', 0]",0,0,0,1,0,0,0,0,[],0,0,0,0,
36,,0,0,,2,300964,37,24,R Sergio [ZESP],1,0,,1648672,300964.37,0,0,3064573563137698080,"[4601.166, 0]",4601.166,442.611,0,1,0,0,,00dd00,,,1,B,0.0,es,"[0, 0]","[0, 0]","[0, 0]",1,0.0,1,1,1,0,0,,20,0,500.27,0,19.95,"[251, 0]","['1.55', 0]","['43', 0]","[239, 0]","['3.5', 0]","['4.0', 0]","[275, 0]",0,"['4.3', 4]","['4.4', 4]","['4.6', 0]","['5.0', 4]","['5.9', 4]","['6.5', 0]","['6.9', 0]","['290', 4]","['298', 4]","['315', 4]","['337', 4]","['400', 4]","['444', 4]","['471', 4]",0,0,0,0,0,0,0,0,[],0,0,0,0,
37,,332,0,,2,300964,38,25,Henrik Brendel,1,0,,32615,300964.38,1869515,0,3064573563136082023,"[4607.325, 0]",4607.325,448.77,0,1,0,1,,00dd00,,,1,B,0.0,dk,"[156, 0]","[169, 0]","[0, 0]",1,81.0,3,1,1,48,0,,20,0,508.53,384.90,0,"[291, 0]","['1.81', 0]","['44', 0]","[283, 0]","['3.5', 0]","['3.4', 0]","[282, 0]",0,"['3.7', 0]","['3.9', 0]","['4.4', 0]","['5.0', 0]","['5.9', 0]","['6.9', 0]","['7.7', 0]","['297', 0]","['317', 0]","['358', 0]","['407', 0]","['478', 0]","['557', 0]","['621', 0]",0,0,0,1,0,0,0,0,[],0,0,0,0,
38,,235,0,,2,300964,39,26,Alberto Perez ,1,0,,293153,300964.39,0,0,3064573563136342561,"[4607.529, 0]",4607.529,448.974,0,1,2146,0,ZESP,000000,fabd00,ad1519,1,B,0.0,es,"[140, 0]","[163, 0]","[0, 0]",1,69.0,3,1,1,48,0,,20,0,516.79,488.57,12.82,"[227, 0]","['1.54', 0]","['44', 0]","[216, 0]","['3.1', 0]","['3.3', 0]","[232, 0]",0,"['3.6', 0]","['3.7', 0]","['3.9', 0]","['4.2', 0]","['5.5', 4]","['6.8', 0]","['8.8', 4]","['245', 0]","['255', 0]","['269', 0]","['292', 0]","['378', 4]","['470', 4]","['604', 4]",0,0,0,1,0,0,0,0,[],0,0,0,0,
39,,220,0,,2,300964,40,27,Alberto Laguillo,1,0,,1359235,300964.40,0,0,3064573563137408643,"[4607.932, 0]",4607.932,449.377,0,1,2146,0,ZESP,000000,fabd00,ad1519,1,B,0.0,es,"[157, 0]","[175, 0]","[0, 0]",1,64.0,3,1,1,43,0,,20,0,525.05,551.36,14.99,"[237, 0]","['1.45', 0]","['44', 0]","[227, 0]","['3.6', 0]","['3.5', 0]","[224, 0]",0,"['3.7', 0]","['4.1', 0]","['4.6', 0]","['5.6', 0]","['8.1', 0]","['10.6', 0]","['11.9', 0]","['236', 0]","['265', 0]","['297', 4]","['356', 0]","['519', 4]","['681', 4]","['763', 4]",0,0,0,1,0,0,0,0,[],0,0,0,0,
40,,274,0,,2,300964,41,28,Marian Sabo,1,0,,206722,300964.41,0,0,3064573563136256130,"[4615.504, 0]",4615.504,456.949,0,1,0,0,,00dd00,,,1,B,0.0,sk,"[152, 0]","[167, 0]","[0, 0]",1,78.0,3,1,1,35,0,,20,0,533.31,504.48,0,"[268, 0]","['1.70', 0]","['45', 0]","[259, 0]","['3.3', 0]","['3.3', 0]","[264, 0]",0,"['3.6', 0]","['3.7', 0]","['3.9', 0]","['4.5', 0]","['5.1', 0]","['5.4', 0]","['5.7', 0]","['278', 0]","['288', 0]","['304', 0]","['349', 0]","['401', 0]","['422', 0]","['441', 0]",0,0,0,1,0,0,0,0,[],0,0,0,0,
41,,249,0,,2,300964,42,29,Rubén Fernández,1,0,,138336,300964.42,5565781,0,3064573563136187744,"[4684.698, 0]",4684.698,526.143,0,1,2146,1,ZESP,000000,fabd00,ad1519,1,B,0.0,es,"[163, 0]","[180, 0]","[0, 0]",1,76.0,3,1,1,42,0,,20,0,541.57,497.72,0,"[250, 0]","['1.47', 0]","['51', 0]","[240, 0]","['3.2', 0]","['3.3', 0]","[255, 0]",0,"['3.5', 0]","['3.7', 0]","['4.0', 0]","['4.5', 0]","['4.9', 0]","['6.6', 0]","['8.0', 0]","['269', 0]","['279', 0]","['302', 0]","['339', 0]","['369', 0]","['504', 0]","['607', 0]",0,0,0,1,0,0,0,0,[],0,0,0,0,
42,,250,0,,2,300964,43,30,Rakytin ,1,0,,897537,300964.43,5620339,0,3064573563136946945,"[4684.758, 0]",4684.758,526.203,0,1,2146,1,ZESP,000000,fabd00,ad1519,0,B,0.0,es,"[166, 0]","[0, 0]","[0, 0]",1,71.0,3,1,10,37,0,,20,0,549.82,497.53,0,"[0, 0]","['1.33', 0]","['53', 0]","[221, 0]","['3.1', 0]","['3.1', 0]","[0, 0]",1,"['', 0]","['', 0]","['', 0]","['', 0]","['', 0]","['', 0]","['', 0]","['0', 0]","['0', 0]","['0', 0]","['0', 0]","['0', 0]","['0', 0]","['0', 0]",0,0,0,1,0,0,0,0,[],0,0,0,0,
43,,270,0,,2,300964,44,31,Fran Morís,1,0,,88349,300964.44,3124664,0,3064573563136137757,"[4710.592, 0]",4710.592,552.037,0,1,2146,0,ZESP,000000,fabd00,ad1519,1,B,0.0,es,"[159, 0]","[169, 0]","[0, 0]",1,78.0,3,1,1,47,0,,20,0,558.08,474.37,0,"[267, 0]","['1.63', 0]","['47', 0]","[259, 0]","['3.3', 0]","['3.5', 0]","[274, 0]",0,"['3.7', 0]","['4.0', 0]","['4.3', 0]","['4.4', 0]","['5.6', 0]","['6.2', 0]","['6.6', 0]","['289', 0]","['312', 0]","['338', 0]","['346', 0]","['439', 0]","['486', 0]","['512', 0]",0,0,0,1,0,0,0,0,[],0,0,0,0,
44,,290,0,,2,300964,45,32,Rober Galan,1,0,,502298,300964.45,1929072,0,3064573563136551706,"[4710.71, 0]",4710.71,552.155,0,1,2146,0,ZESP,000000,fabd00,ad1519,0,B,0.0,es,"[153, 0]","[0, 0]","[0, 0]",1,79.0,3,1,10,49,0,,20,0,566.34,520.83,0,"[0, 0]","['1.65', 0]","['47', 0]","[253, 0]","['3.2', 0]","['3.2', 0]","[0, 0]",1,"['', 0]","['', 0]","['', 0]","['', 0]","['', 0]","['', 0]","['', 0]","['0', 0]","['0', 0]","['0', 0]","['0', 0]","['0', 0]","['0', 0]","['0', 0]",0,0,0,1,0,0,0,0,[],0,0,0,0,
45,,282,0,,2,300964,46,33,Jordi Garcia (ZESP 2),1,0,,1350724,300964.46,0,0,3064573563137400132,"[4921.126, 0]",4921.126,762.571,0,1,2146,0,ZESP,000000,fabd00,ad1519,1,B,178.0,es,"[142, 0]","[175, 0]","[0, 0]",1,75.0,3,1,1,42,0,,20,0,574.60,488.72,0,"[235, 0]","['1.61', 0]","['46', 0]","[228, 0]","['3.0', 0]","['3.1', 0]","[236, 0]",0,"['3.3', 0]","['3.5', 0]","['4.2', 0]","['5.0', 0]","['6.3', 0]","['6.7', 0]","['7.1', 0]","['249', 0]","['262', 0]","['314', 0]","['376', 0]","['470', 0]","['506', 0]","['530', 0]",0,0,0,1,0,0,0,0,[],0,0,0,0,
46,,223,0,,2,300964,47,34,manolo garcia,1,0,,577557,300964.47,0,0,3064573563136626965,"[4922.745, 0]",4922.745,764.19,0,1,2146,0,ZESP,000000,fabd00,ad1519,1,B,0.0,es,"[152, 0]","[175, 0]","[0, 0]",1,61.0,3,1,1,34,0,,20,0,582.86,522.49,3.43,"[192, 0]","['1.22', 0]","['49', 0]","[186, 0]","['3.1', 0]","['3.3', 0]","[201, 0]",0,"['3.5', 0]","['3.6', 0]","['3.7', 0]","['4.0', 0]","['5.0', 4]","['5.7', 0]","['7.9', 0]","['212', 0]","['219', 0]","['227', 0]","['247', 0]","['303', 4]","['348', 4]","['482', 4]",0,0,0,1,0,0,0,0,[],0,0,0,0,
47,,280,0,,2,300964,48,35,BernardTri (ZESP4),1,0,,169217,300964.48,9578416,0,3064573563136218625,"[4974.056, 0]",4974.056,815.501,0,1,2146,0,ZESP,000000,fabd00,ad1519,1,B,0.0,es,"[153, 0]","[169, 0]","[0, 0]",1,83.0,3,1,1,51,0,,20,0,591.12,559.79,1.78,"[254, 0]","['1.58', 0]","['52', 0]","[241, 0]","['2.9', 0]","['3.1', 0]","[262, 0]",0,"['3.3', 0]","['3.4', 0]","['3.6', 0]","['4.1', 0]","['5.7', 0]","['6.4', 0]","['6.8', 0]","['276', 0]","['283', 0]","['297', 0]","['344', 0]","['476', 0]","['533', 0]","['564', 0]",0,0,0,1,0,0,0,0,[],0,0,0,0,
48,,264,0,,2,300964,49,36,Xandro82,1,0,,1498564,300964.49,0,6,3064573563137547972,"[4977.326, 0]",4977.326,818.771,0,1,2146,0,ZESP,000000,fabd00,ad1519,1,B,0.0,es,"[169, 0]","[180, 0]","[0, 0]",1,79.0,3,1,1,38,0,,20,0,599.38,591.65,0.12,"[251, 0]","['1.44', 0]","['54', 0]","[244, 0]","['3.1', 0]","['3.2', 0]","[260, 0]",0,"['3.5', 0]","['3.7', 0]","['3.7', 0]","['3.9', 0]","['4.3', 0]","['5.5', 0]","['6.0', 0]","['274', 0]","['291', 0]","['296', 0]","['306', 0]","['343', 0]","['435', 0]","['477', 0]",0,0,0,1,0,0,0,0,[],0,0,0,0,
49,,230,0,,2,300964,50,37,Luis_A,1,0,,1516865,300964.50,0,18,3064573563137566273,"[5048.329, 0]",5048.329,889.774,0,1,2146,1,ZESP,000000,fabd00,ad1519,1,B,0.0,es,"[148, 0]","[166, 0]","[0, 0]",1,63.0,3,1,1,11,0,,20,0,0,548.58,0,"[224, 0]","['1.35', 0]","['46', 0]","[200, 0]","['3.2', 0]","['3.9', 0]","[247, 0]",0,"['4.1', 0]","['4.3', 0]","['4.6', 0]","['4.7', 0]","['4.9', 0]","['6.7', 0]","['7.5', 0]","['261', 4]","['274', 0]","['287', 0]","['293', 0]","['306', 0]","['423', 4]","['474', 4]",0,0,0,1,0,0,0,0,[],0,0,0,0,
50,,265,0,,2,300964,51,38,Euge,1,0,,663266,300964.51,0,0,3064573563136712674,"[5091.639, 0]",5091.639,933.084,0,1,2146,0,ZESP,000000,fabd00,ad1519,1,B,0.0,es,"[161, 0]","[172, 0]","[0, 0]",1,75.0,3,1,1,57,0,,20,0,0,508.69,0,"[224, 0]","['1.33', 0]","['56', 0]","[214, 0]","['2.9', 0]","['3.1', 0]","[235, 0]",0,"['3.3', 0]","['3.6', 0]","['4.0', 0]","['4.0', 0]","['4.8', 0]","['5.8', 0]","['8.2', 4]","['248', 0]","['273', 0]","['301', 0]","['303', 0]","['360', 0]","['438', 0]","['612', 4]",0,0,0,1,0,0,0,0,[],0,0,0,0,
51,,300,0,,2,300964,52,39,Cristian G.D.,1,0,,1531426,300964.52,1961008,0,3064573563137580834,"[5121.352, 0]",5121.352,962.797,0,1,2146,1,ZESP,000000,fabd00,ad1519,1,B,181.0,es,"[144, 0]","[174, 0]","[0, 0]",1,73.0,3,1,1,31,0,,20,0,0,547.69,0,"[238, 0]","['1.52', 0]","['48', 0]","[219, 0]","['3.0', 0]","['3.1', 0]","[231, 0]",0,"['3.3', 0]","['4.0', 0]","['4.8', 0]","['4.8', 0]","['5.5', 0]","['6.8', 0]","['7.3', 0]","['244', 0]","['293', 0]","['349', 0]","['352', 0]","['404', 0]","['496', 0]","['530', 0]",0,0,0,1,0,0,0,0,[],0,0,0,0,
52,,279,0,,2,300964,53,40,AlfonsoDT,1,0,,1478045,300964.53,0,0,3064573563137527453,"[5158.809, 0]",5158.809,1000.254,0,1,2146,0,ZESP,000000,fabd00,ad1519,1,B,0.0,es,"[176, 1]","[185, 0]","[0, 0]",1,86.0,3,1,1,45,0,,20,0,0,569.88,0,"[248, 0]","['1.34', 0]","['64', 0]","[235, 0]","['2.7', 0]","['3.1', 0]","[271, 0]",0,"['3.3', 0]","['3.5', 0]","['3.6', 0]","['3.7', 0]","['4.5', 0]","['5.5', 0]","['7.0', 0]","['286', 0]","['298', 0]","['311', 0]","['322', 0]","['389', 0]","['470', 0]","['603', 0]",0,0,0,1,0,0,0,0,[],0,0,0,0,
53,,241,0,,2,300964,54,41,  Xiroko ,1,0,,969760,300964.54,0,0,3064573563137019168,"[5312.773, 0]",5312.773,1154.218,0,1,2146,0,ZESP,000000,fabd00,ad1519,1,B,0.0,es,"[158, 0]","[182, 0]","[0, 0]",1,70.0,3,1,1,39,0,,20,0,0,533.75,0,"[206, 0]","['1.15', 0]","['60', 0]","[182, 0]","['2.6', 0]","['3.2', 0]","[228, 0]",0,"['3.4', 0]","['3.8', 0]","['4.1', 0]","['4.2', 0]","['4.8', 0]","['5.7', 0]","['6.2', 0]","['240', 0]","['264', 0]","['285', 0]","['294', 0]","['339', 0]","['402', 0]","['435', 0]",0,0,0,1,0,0,0,0,[],0,0,0,0,
54,,215,0,,2,300964,55,42,Félix Arcas,1,0,,670939,300964.55,28635468,0,3064573563136720347,"[5479.362, 0]",5479.362,1320.807,0,1,2146,0,ZESP,000000,fabd00,ad1519,1,B,171.0,es,"[156, 0]","[169, 0]","[0, 0]",1,62.0,3,1,1,41,0,,20,0,0,538.45,0,"[176, 0]","['1.11', 0]","['55', 0]","[173, 0]","['2.8', 0]","['2.8', 0]","[173, 0]",0,"['3.0', 0]","['3.1', 0]","['3.3', 0]","['3.4', 0]","['4.2', 0]","['5.1', 0]","['6.1', 0]","['183', 0]","['193', 0]","['204', 0]","['210', 0]","['261', 0]","['315', 0]","['377', 0]",0,0,0,1,0,0,0,0,[],0,0,0,0,
55,,237,0,,3,300964,56,1,Armin Ovic,1,0,,308696,300964.56,9595065,0,3064573663136358104,"[4922.693, 0]",4922.693,0.0,0,1,588,1,Team Italy,dd4b39,ffffff,00a65a,1,C,0.0,it,"[157, 0]","[169, 0]","[0, 0]",1,69.0,3,1,1,39,0,,20,0,505.19,0,18.96,"[224, 0]","['1.41', 0]","['49', 0]","[221, 0]","['3.2', 0]","['3.2', 0]","[226, 0]",0,"['3.4', 0]","['3.5', 0]","['3.7', 0]","['4.3', 0]","['5.2', 4]","['6.1', 0]","['6.4', 0]","['238', 4]","['243', 0]","['252', 0]","['300', 4]","['358', 4]","['424', 0]","['441', 0]",0,0,0,1,0,0,0,0,[],0,0,0,0,
56,,228,0,,3,300964,57,2,Sgarcía,1,0,,1486115,300964.57,0,0,3064573663137535523,"[4923.017, 0]",4923.017,0.324,0,1,2146,0,ZESP,000000,fabd00,ad1519,0,C,0.0,es,"[173, 0]","[0, 0]","[0, 0]",1,70.0,3,1,10,42,0,,30,0,519.01,569.63,16.20,"[0, 0]","['1.21', 0]","['57', 0]","[209, 0]","['3.0', 0]","['3.0', 0]","[0, 0]",1,"['', 0]","['', 0]","['', 0]","['', 0]","['', 0]","['', 0]","['', 0]","['0', 0]","['0', 0]","['0', 0]","['0', 0]","['0', 0]","['0', 0]","['0', 0]",0,0,0,1,0,0,0,0,[],0,0,0,0,
57,,238,0,,3,300964,58,3,MarioMaestro ,1,0,,1550753,300964.58,0,0,3064573663137600161,"[4958.843, 0]",4958.843,36.15,0,1,2146,0,ZESP,000000,fabd00,ad1519,1,C,0.0,es,"[173, 0]","[185, 0]","[0, 0]",1,90.0,3,1,1,33,0,,30,0,532.83,552.81,13.44,"[291, 0]","['1.61', 0]","['55', 0]","[279, 0]","['3.1', 0]","['3.1', 0]","[282, 0]",0,"['3.3', 4]","['3.7', 0]","['4.0', 0]","['4.9', 0]","['6.2', 4]","['8.2', 4]","['9.0', 4]","['297', 4]","['336', 4]","['361', 4]","['444', 4]","['555', 4]","['736', 4]","['810', 4]",0,0,0,1,0,0,0,0,[],0,0,0,0,
58,,291,0,,3,300964,59,4,José Manuel Maroño,1,0,,358883,300964.59,0,0,3064573663136408291,"[4973.165, 0]",4973.165,50.472,0,1,2146,0,ZESP,000000,fabd00,ad1519,0,C,0.0,es,"[157, 0]","[0, 0]","[0, 0]",1,92.0,3,1,10,44,0,,30,0,546.64,478.49,0,"[0, 0]","['1.69', 0]","['54', 0]","[266, 0]","['2.9', 0]","['2.9', 0]","[0, 0]",1,"['', 0]","['', 0]","['', 0]","['', 0]","['', 0]","['', 0]","['', 0]","['0', 0]","['0', 0]","['0', 0]","['0', 0]","['0', 0]","['0', 0]","['0', 0]",0,0,0,1,0,0,0,0,[],0,0,0,0,
59,,247,0,,3,300964,60,5,Piwilompa ,1,0,,1395769,300964.60,10601918,0,3064573663137445177,"[5062.271, 0]",5062.271,139.578,0,1,2146,0,ZESP,000000,fabd00,ad1519,1,C,0.0,es,"[161, 0]","[171, 0]","[0, 0]",1,79.0,3,1,1,40,0,,30,0,560.46,549.88,7.91,"[240, 0]","['1.43', 0]","['55', 0]","[231, 0]","['2.9', 0]","['3.0', 0]","[240, 0]",0,"['3.2', 0]","['3.4', 0]","['3.6', 0]","['3.9', 0]","['5.2', 0]","['6.4', 0]","['7.2', 0]","['253', 0]","['272', 0]","['285', 0]","['306', 0]","['407', 0]","['507', 0]","['566', 0]",0,0,0,1,0,0,0,0,[],0,0,0,0,
60,,219,0,,3,300964,61,6,J Delgado57,1,0,,1378289,300964.61,0,0,3064573663137427697,"[5096.379, 0]",5096.379,173.686,0,1,2146,0,ZESP,000000,fabd00,ad1519,1,C,0.0,es,"[161, 0]","[174, 0]","[0, 0]",1,68.0,3,1,1,32,0,,30,0,574.28,581.88,5.14,"[212, 0]","['1.29', 0]","['52', 0]","[208, 0]","['3.1', 0]","['3.2', 0]","[218, 0]",0,"['3.4', 4]","['3.6', 4]","['3.7', 0]","['3.9', 0]","['4.1', 0]","['4.9', 0]","['7.3', 4]","['230', 4]","['243', 0]","['250', 0]","['266', 0]","['276', 0]","['334', 0]","['494', 4]",0,0,0,1,0,0,0,0,[],0,0,0,0,
61,,210,0,,3,300964,62,7,Manu Domínguez,1,0,,1445769,300964.62,8896618,0,3064573663137495177,"[5278.616, 0]",5278.616,355.923,0,1,2146,0,ZESP,000000,fabd00,ad1519,0,C,0.0,es,"[148, 0]","[0, 0]","[0, 0]",1,72.4,3,1,10,47,0,,30,0,588.10,579.02,2.38,"[0, 0]","['1.39', 0]","['52', 0]","[206, 0]","['2.9', 0]","['2.9', 0]","[0, 0]",1,"['', 0]","['', 0]","['', 0]","['', 0]","['', 0]","['', 0]","['', 0]","['0', 0]","['0', 0]","['0', 0]","['0', 0]","['0', 0]","['0', 0]","['0', 0]",0,0,0,1,0,0,0,0,[],0,0,0,0,
62,,230,0,,3,300964,63,8,BlaiRuiz ,1,0,,162526,300964.63,0,0,3064573663136211934,"[5283.344, 0]",5283.344,360.651,0,1,2146,0,ZESP,000000,fabd00,ad1519,0,C,0.0,es,"[168, 0]","[0, 0]","[0, 0]",1,75.0,3,1,10,53,0,,30,0,0,598.49,0,"[0, 0]","['1.28', 0]","['58', 0]","[215, 0]","['2.9', 0]","['2.9', 0]","[0, 0]",1,"['', 0]","['', 0]","['', 0]","['', 0]","['', 0]","['', 0]","['', 0]","['0', 0]","['0', 0]","['0', 0]","['0', 0]","['0', 0]","['0', 0]","['0', 0]",0,0,0,1,0,0,0,0,[],0,0,0,0,
63,,185,0,,3,300964,64,9,Jaime,1,0,,1204926,300964.64,39105519,0,3064573663137254334,"[5422.288, 0]",5422.288,499.595,0,1,2146,0,ZESP,000000,fabd00,ad1519,1,C,0.0,es,"[157, 0]","[181, 0]","[0, 0]",1,58.0,3,1,1,36,0,,30,0,0,582.70,0,"[168, 0]","['1.00', 0]","['58', 0]","[157, 0]","['2.7', 0]","['2.8', 0]","[165, 0]",0,"['3.0', 0]","['3.3', 0]","['4.1', 4]","['4.3', 0]","['5.8', 0]","['6.9', 4]","['7.2', 4]","['174', 0]","['189', 0]","['236', 0]","['250', 0]","['337', 0]","['398', 4]","['415', 4]",0,0,0,1,0,0,0,0,[],0,0,0,0,
64,,181,0,,3,300964,65,10,Josue,1,0,,504928,300964.65,18534692,0,3064573663136554336,"[5854.87, 0]",5854.87,932.177,0,1,2146,0,ZESP,000000,fabd00,ad1519,1,C,0.0,es,"[162, 0]","[173, 0]","[0, 0]",1,67.0,3,1,1,42,0,,30,0,0,585.36,0,"[167, 0]","['1.01', 0]","['66', 0]","[164, 0]","['2.5', 0]","['2.5', 0]","[171, 0]",0,"['2.7', 0]","['2.8', 0]","['2.9', 0]","['3.1', 0]","['3.4', 0]","['3.6', 0]","['3.9', 0]","['181', 0]","['188', 0]","['196', 0]","['205', 0]","['229', 0]","['241', 0]","['259', 0]",0,0,0,1,0,0,0,0,[],0,0,0,0,
65,,265,0,,3,300964,66,11,Zabalain,1,0,,653635,300964.66,487017,0,3064573663136703043,"[6416.219, 0]",6416.219,1493.526,0,1,2146,0,ZESP,000000,fabd00,ad1519,1,C,0.0,es,"[158, 0]","[171, 0]","[0, 0]",1,87.0,3,1,1,50,0,,30,0,0,562.85,0,"[183, 0]","['1.11', 0]","['78', 0]","[175, 0]","['2.0', 0]","['2.3', 0]","[202, 0]",0,"['2.4', 0]","['2.6', 0]","['2.8', 0]","['3.2', 0]","['3.4', 0]","['3.5', 0]","['3.7', 0]","['213', 0]","['227', 0]","['247', 0]","['281', 0]","['296', 0]","['305', 0]","['322', 0]",0,0,0,1,0,0,0,0,[],0,0,0,0,
66,,189,0,,4,300964,67,1,Hunter_44,1,0,,1113894,300964.67,0,0,3064573763137163302,"[5896.405, 0]",5896.405,0.0,0,1,2146,0,ZESP,000000,fabd00,ad1519,1,D,0.0,es,"[146, 0]","[168, 0]","[0, 0]",1,77.0,3,1,1,33,0,,40,0,0,0,0,"[186, 0]","['1.25', 0]","['61', 0]","[182, 0]","['2.4', 0]","['2.4', 0]","[188, 0]",0,"['2.6', 4]","['2.6', 0]","['3.0', 0]","['3.2', 0]","['3.4', 0]","['3.7', 4]","['4.3', 4]","['198', 4]","['204', 0]","['232', 0]","['247', 0]","['258', 0]","['284', 4]","['329', 4]",0,0,0,1,0,0,0,0,[],0,0,0,0,
67,,164,0,,4,300964,68,2,Rominauer,1,0,,659304,300964.68,21201113,0,3064573763136708712,"[7114.99, 0]",7114.99,1218.585,0,1,2146,0,ZESP,000000,fabd00,ad1519,1,D,0.0,es,"[148, 0]","[175, 0]","[0, 0]",1,90.0,3,1,1,44,0,,40,0,0,0,0,"[172, 0]","['1.02', 0]","['88', 0]","[151, 0]","['1.7', 0]","['1.9', 0]","[172, 0]",0,"['2.0', 0]","['2.2', 0]","['2.6', 0]","['3.4', 0]","['5.3', 0]","['7.0', 0]","['7.4', 0]","['182', 4]","['196', 0]","['236', 0]","['310', 0]","['480', 0]","['628', 0]","['670', 0]",0,0,0,1,0,0,0,0,[],0,0,0,0,
