,DT_RowId,ftp,friend,pt,label,zid,pos,position_in_cat,name,cp,act_id,act_name,zwid,res_id,aid,lag,uid,time,time_gun,gap,vtta,male,tid,topen,tname,tc,tbc,tbd,zeff,category,height,flag,avg_hr,max_hr,hrmax,hrm,weight,power_type,display_pos,src,age,zada,note,div,divw,skill,skill_b,skill_gain,np,hrr,hreff,avg_power,avg_wkg,wkg_ftp,wftp,wkg_guess,wkg1200,wkg300,wkg120,wkg60,wkg30,wkg15,wkg5,w1200,w300,w120,w60,w30,w15,w5,is_guess,upg,penalty,reg,fl,pts,pts_pos,info,info_notes,log,lead,sweep,anal
0,,365,0,,1,293490,1,1,Pello Osoro,1,0,,135873,293490.1,0,0,3063523763136185281,"[3149.281, 1]",3149.281,0.0,0,1,2146,0,ZESP,000000,fabd00,ad1519,1,A,0.0,es,"[121, 0]","[173, 0]","[0, 0]",1,70.0,3,1,1,28,0,,5,0,264.16,277.48,7.77,"[313, 0]","['2.44', 1]","['28', 1]","[295, 0]","['4.2', 0]","['4.4', 0]","[313, 0]",0,"['4.7', 1]","['5.8', 1]","['7.1', 4]","['7.4', 4]","['7.5', 1]","['7.5', 0]","['7.7', 0]","['330', 0]","['408', 1]","['496', 4]","['515', 4]","['524', 0]","['525', 0]","['537', 0]",0,0,0,1,0,0,0,0,[],0,0,0,0
1,,293,0,,1,293490,2,2,Robert Österling,1,0,,522632,293490.2,0,0,3063523763136572040,"[3162.205, 0]",3162.205,12.924,0,1,0,0,,00dd00,,,1,A,0.0,se,"[148, 0]","[177, 0]","[0, 0]",1,60.0,3,1,1,43,0,,10,0,300.14,258.35,0,"[269, 0]","['1.74', 0]","['34', 0]","[258, 0]","['4.3', 0]","['4.2', 0]","[253, 0]",0,"['4.4', 0]","['5.4', 0]","['6.4', 1]","['6.6', 1]","['7.0', 0]","['7.7', 0]","['8.8', 0]","['267', 0]","['325', 0]","['384', 0]","['399', 0]","['418', 0]","['461', 0]","['531', 0]",0,0,0,1,0,0,0,0,[],1,0,0,0
2,,260,0,,1,293490,3,3,Luisete ,1,0,,173997,293490.3,221337,0,3063523763136223405,"[3179.637, 0]",3179.637,30.356,0,1,2146,1,ZESP,000000,fabd00,ad1519,1,A,0.0,es,"[172, 0]","[186, 0]","[0, 0]",1,62.0,3,1,1,39,0,,10,0,336.13,363.39,16.81,"[264, 0]","['1.48', 0]","['41', 0]","[254, 0]","['4.1', 0]","['4.0', 0]","[249, 0]",0,"['4.2', 0]","['5.0', 0]","['5.6', 0]","['5.9', 0]","['6.8', 0]","['7.8', 0]","['8.4', 0]","['263', 0]","['310', 0]","['349', 0]","['363', 0]","['422', 0]","['486', 0]","['520', 0]",0,0,0,1,0,0,0,0,[],0,0,0,0
3,,371,0,,1,293490,4,4,M Moehn,1,0,,73702,293490.4,1928826,0,3063523763136123110,"[3182.931, 0]",3182.931,33.65,0,1,1187,0,SAKARI,001dff,46ff00,31b6fc,1,A,0.0,us,"[147, 0]","[170, 0]","[186, 1]",1,83.0,3,1,1,34,0,,10,0,372.11,176.80,0,"[342, 1]","['2.13', 0]","['38', 0]","[313, 0]","['3.8', 0]","['3.8', 0]","[319, 0]",0,"['4.0', 0]","['4.6', 0]","['5.4', 0]","['5.5', 0]","['6.4', 0]","['7.4', 0]","['8.8', 0]","['336', 0]","['378', 0]","['446', 1]","['459', 1]","['530', 1]","['612', 0]","['727', 1]",0,0,0,1,0,0,0,0,[],0,0,0,0
4,,265,0,,1,293490,5,5,Txori Fernandez ,1,0,,1559854,293490.5,20365095,0,3063523763137609262,"[3195.393, 0]",3195.393,46.112,0,1,2146,1,ZESP,000000,fabd00,ad1519,0,A,0.0,es,"[167, 0]","[0, 0]","[0, 0]",1,59.0,3,1,10,43,0,,10,0,408.09,391.51,11.60,"[0, 0]","['1.68', 0]","['35', 0]","[280, 0]","['4.8', 1]","['4.6', 1]","[0, 0]",1,"['', 0]","['', 0]","['', 0]","['', 0]","['', 0]","['', 0]","['', 0]","['0', 0]","['0', 0]","['0', 0]","['0', 0]","['0', 0]","['0', 0]","['0', 0]",0,0,0,1,0,0,0,0,[],0,0,0,0
5,,266,0,,1,293490,6,6,Stefan Aulbach,1,0,,660287,293490.6,0,0,3063523763136709695,"[3452.254, 0]",3452.254,302.973,0,1,1942,0,ZRG,1bc1f1,3d3d3d,1bc1f1,1,A,170.0,de,"[153, 0]","[174, 0]","[0, 0]",1,66.0,3,1,1,35,0,,20,0,444.08,558.57,31.18,"[265, 0]","['1.71', 0]","['38', 0]","[262, 0]","['4.0', 0]","['3.9', 0]","[259, 0]",0,"['4.1', 0]","['4.4', 0]","['4.6', 0]","['4.6', 0]","['5.0', 0]","['5.7', 0]","['6.2', 0]","['273', 0]","['293', 0]","['301', 0]","['306', 0]","['333', 0]","['375', 0]","['407', 0]",0,0,0,1,0,0,0,0,[],0,0,0,0
6,,316,0,,1,293490,7,7,legi11,1,0,,1459976,293490.7,0,0,3063523763137509384,"[3582.616, 0]",3582.616,433.335,0,1,2146,0,ZESP,000000,fabd00,ad1519,1,A,0.0,es,"[153, 0]","[172, 0]","[0, 0]",1,76.0,3,1,1,41,0,,10,0,480.06,484.04,11.13,"[264, 0]","['1.69', 0]","['45', 0]","[258, 0]","['3.4', 0]","['3.2', 0]","[248, 0]",0,"['3.4', 0]","['4.1', 0]","['4.3', 0]","['4.5', 0]","['4.9', 0]","['5.3', 0]","['5.5', 0]","['262', 0]","['310', 0]","['327', 0]","['344', 0]","['374', 0]","['402', 0]","['420', 0]",0,0,0,1,0,0,0,0,[],0,0,0,0
7,,280,0,,2,293490,8,1,Minyana NEO,1,0,,91920,293490.8,7867457,0,3063523863136141328,"[3178.227, 0]",3178.227,0.0,0,1,2146,0,ZESP,000000,fabd00,ad1519,1,B,0.0,es,"[158, 0]","[179, 0]","[182, 0]",1,68.0,3,1,1,58,0,,20,0,328.94,308.80,0,"[278, 0]","['1.66', 0]","['41', 0]","[262, 0]","['3.9', 0]","['3.8', 0]","[260, 0]",0,"['4.0', 0]","['4.8', 0]","['5.9', 0]","['6.1', 0]","['6.6', 0]","['7.2', 0]","['8.6', 0]","['274', 0]","['326', 0]","['403', 0]","['417', 0]","['446', 0]","['487', 0]","['585', 0]",0,0,0,1,0,0,0,0,[],0,0,0,0
8,,323,0,,2,293490,9,2,RacsoRJ ,1,0,,616230,293490.9,15172233,0,3063523863136665638,"[3210.663, 0]",3210.663,32.436,0,1,2146,1,ZESP,000000,fabd00,ad1519,1,B,0.0,es,"[153, 0]","[167, 0]","[0, 0]",1,78.0,3,1,1,43,0,,20,0,339.28,376.34,11.17,"[309, 0]","['1.96', 0]","['39', 0]","[300, 0]","['3.9', 0]","['3.8', 0]","[298, 0]",0,"['4.0', 0]","['4.3', 0]","['4.7', 0]","['4.9', 0]","['5.2', 0]","['6.1', 0]","['7.3', 0]","['314', 0]","['339', 0]","['369', 0]","['381', 0]","['405', 0]","['478', 0]","['570', 0]",0,0,0,1,0,0,0,0,[],0,0,0,0
9,,261,0,,2,293490,10,3,Nano,1,0,,1368240,293490.10,13859894,0,3063523863137417648,"[3235.449, 0]",3235.449,57.222,0,1,2146,0,ZESP,000000,fabd00,ad1519,1,B,0.0,es,"[179, 0]","[187, 0]","[0, 0]",1,68.0,3,1,1,41,0,,20,0,349.62,378.59,10.01,"[267, 0]","['1.45', 0]","['46', 0]","[259, 0]","['3.8', 0]","['3.6', 0]","[250, 0]",0,"['3.9', 0]","['4.4', 0]","['4.7', 0]","['4.9', 0]","['5.4', 0]","['6.3', 0]","['7.6', 0]","['264', 0]","['296', 0]","['320', 0]","['332', 0]","['369', 0]","['427', 0]","['514', 0]",0,0,0,1,0,0,0,0,[],0,0,0,0
10,,355,0,,2,293490,11,4,Markus Porath,1,0,,1011574,293490.11,0,0,3063523863137060982,"[3236.963, 0]",3236.963,58.736,0,1,0,0,,00dd00,,,1,B,0.0,se,"[154, 0]","[169, 0]","[0, 0]",1,85.0,3,1,1,47,0,,20,0,359.96,390.99,8.67,"[341, 0]","['2.18', 0]","['38', 0]","[336, 1]","['4.0', 0]","['3.8', 0]","[326, 1]",0,"['4.0', 0]","['4.3', 0]","['4.5', 0]","['4.7', 0]","['5.3', 0]","['5.9', 0]","['6.2', 0]","['344', 1]","['363', 0]","['384', 0]","['402', 0]","['447', 0]","['498', 0]","['530', 0]",0,0,0,1,0,0,0,0,[],0,0,0,0
11,,279,0,,2,293490,12,5,D. cohe8,1,0,,841839,293490.12,1871030,0,3063523863136891247,"[3238.205, 0]",3238.205,59.978,0,1,2146,1,ZESP,000000,fabd00,ad1519,0,B,0.0,es,"[152, 0]","[0, 0]","[0, 0]",1,70.0,3,1,10,39,0,,20,0,370.29,444.28,18.52,"[0, 0]","['1.82', 0]","['38', 0]","[276, 0]","['3.9', 0]","['3.8', 0]","[0, 0]",1,"['', 0]","['', 0]","['', 0]","['', 0]","['', 0]","['', 0]","['', 0]","['0', 0]","['0', 0]","['0', 0]","['0', 0]","['0', 0]","['0', 0]","['0', 0]",0,0,0,1,0,0,0,0,[],0,0,0,0
12,,280,0,,2,293490,13,6,LuisM_Ortiz,1,0,,34674,293490.13,6964021,0,3063523863136084082,"[3245.705, 0]",3245.705,67.478,0,1,2146,0,ZESP,000000,fabd00,ad1519,1,B,0.0,es,"[165, 0]","[181, 0]","[0, 0]",1,70.0,3,1,1,46,0,,20,0,380.63,372.74,2.18,"[275, 0]","['1.62', 0]","['43', 0]","[267, 0]","['3.8', 0]","['3.7', 0]","[261, 0]",0,"['3.9', 0]","['4.4', 0]","['5.0', 0]","['5.0', 0]","['5.6', 0]","['6.0', 0]","['7.4', 0]","['275', 0]","['306', 0]","['347', 0]","['351', 0]","['395', 0]","['421', 0]","['521', 0]",0,0,0,1,0,0,0,0,[],0,0,0,0
13,,310,0,,2,293490,14,7,Doval,1,0,,303080,293490.14,12475033,0,3063523863136352488,"[3250.431, 0]",3250.431,72.204,0,1,2146,0,ZESP,000000,fabd00,ad1519,1,B,0.0,es,"[161, 0]","[177, 0]","[0, 0]",1,85.0,3,1,1,37,0,,20,0,390.97,430.55,18.77,"[333, 0]","['2.01', 0]","['42', 0]","[324, 0]","['3.8', 0]","['3.7', 0]","[319, 0]",0,"['4.0', 4]","['4.3', 0]","['4.9', 0]","['5.2', 0]","['5.9', 0]","['7.3', 0]","['7.6', 0]","['336', 4]","['366', 0]","['413', 0]","['442', 0]","['503', 0]","['621', 1]","['644', 0]",0,0,0,1,0,0,0,0,[],0,0,0,0
14,,268,0,,2,293490,15,8,Fabitri NEO,1,0,,113700,293490.15,11971548,0,3063523863136163108,"[3281.461, 0]",3281.461,103.234,0,1,2146,0,ZESP,000000,fabd00,ad1519,1,B,0.0,es,"[156, 0]","[162, 0]","[0, 0]",1,68.0,3,1,1,38,0,,20,0,401.31,459.66,39.74,"[257, 0]","['1.62', 0]","['42', 0]","[252, 0]","['3.7', 0]","['3.5', 0]","[243, 0]",0,"['3.8', 0]","['4.0', 0]","['4.2', 0]","['4.6', 0]","['5.1', 0]","['5.7', 0]","['6.4', 0]","['256', 0]","['269', 0]","['288', 0]","['316', 0]","['348', 0]","['385', 0]","['436', 0]",0,0,0,1,0,0,0,0,[],0,0,0,0
15,,335,0,,2,293490,16,9,Pinillaken,1,0,,119806,293490.16,1607011,0,3063523863136169214,"[3328.875, 0]",3328.875,150.648,0,1,2146,0,ZESP,000000,fabd00,ad1519,1,B,0.0,es,"[156, 0]","[170, 0]","[0, 0]",1,85.0,3,1,1,48,0,,20,0,411.65,444.85,14.48,"[302, 0]","['1.88', 0]","['45', 0]","[294, 0]","['3.5', 0]","['3.3', 0]","[286, 0]",0,"['3.6', 0]","['3.8', 0]","['4.2', 0]","['4.4', 0]","['4.9', 0]","['5.5', 0]","['6.2', 0]","['302', 0]","['319', 0]","['353', 0]","['374', 0]","['415', 0]","['466', 0]","['525', 0]",0,0,0,1,0,0,0,0,[],0,0,0,0
16,,316,0,,2,293490,17,10,Jorghotten,1,0,,265523,293490.17,9273391,0,3063523863136314931,"[3420.004, 0]",3420.004,241.777,0,1,2146,0,ZESP,000000,fabd00,ad1519,1,B,0.0,es,"[164, 0]","[177, 0]","[0, 0]",1,78.0,3,1,1,44,0,,20,0,421.99,515.14,35.60,"[290, 0]","['1.71', 0]","['45', 0]","[280, 0]","['3.6', 0]","['3.5', 0]","[276, 0]",0,"['3.7', 0]","['4.1', 0]","['4.6', 0]","['4.8', 0]","['5.4', 0]","['7.3', 0]","['8.6', 4]","['291', 0]","['318', 0]","['358', 0]","['377', 0]","['421', 0]","['569', 0]","['668', 4]",0,0,0,1,0,0,0,0,[],0,0,0,0
17,,230,0,,2,293490,18,11,Igortxu2109 ,1,0,,264732,293490.18,7665068,0,3063523863136314140,"[3424.756, 0]",3424.756,246.529,0,1,2146,0,ZESP,000000,fabd00,ad1519,1,B,0.0,es,"[164, 0]","[174, 0]","[0, 0]",1,70.0,3,1,1,48,0,,20,0,432.32,445.56,8.42,"[260, 0]","['1.55', 0]","['45', 0]","[254, 0]","['3.6', 0]","['3.6', 0]","[252, 0]",0,"['3.8', 0]","['4.1', 0]","['4.4', 0]","['5.0', 0]","['5.5', 0]","['5.8', 0]","['6.2', 0]","['266', 0]","['284', 0]","['306', 0]","['347', 0]","['382', 0]","['409', 0]","['437', 0]",0,0,0,1,0,0,0,0,[],0,0,0,0
18,,273,0,,2,293490,19,12,Miguel Ángel,1,0,,538185,293490.19,4749464,0,3063523863136587593,"[3425.104, 0]",3425.104,246.877,0,1,2146,0,ZESP,000000,fabd00,ad1519,1,B,0.0,es,"[152, 0]","[165, 0]","[155, 1]",1,71.0,3,1,1,48,0,,20,0,442.66,470.96,15.82,"[260, 0]","['1.68', 0]","['42', 0]","[255, 0]","['3.6', 0]","['3.5', 0]","[251, 0]",0,"['3.7', 0]","['4.1', 0]","['4.3', 0]","['4.5', 0]","['4.9', 0]","['5.4', 0]","['5.6', 0]","['265', 0]","['293', 0]","['308', 0]","['323', 0]","['350', 0]","['382', 0]","['397', 0]",0,0,0,1,0,0,0,0,[],0,0,0,0
19,,230,0,,2,293490,20,13,Luis_A,1,0,,1516865,293490.20,0,0,3063523863137566273,"[3425.427, 0]",3425.427,247.2,0,1,2146,1,ZESP,000000,fabd00,ad1519,1,B,0.0,es,"[154, 0]","[168, 0]","[0, 0]",1,63.0,3,1,1,11,0,,20,0,453.00,576.03,29.40,"[237, 0]","['1.49', 0]","['42', 0]","[229, 0]","['3.6', 0]","['3.6', 0]","[227, 0]",0,"['3.8', 0]","['4.6', 0]","['5.1', 0]","['5.3', 0]","['5.3', 0]","['5.9', 0]","['6.5', 0]","['239', 0]","['292', 4]","['322', 0]","['331', 0]","['336', 0]","['371', 0]","['409', 0]",0,0,0,1,0,0,0,0,[],0,0,0,0
20,,250,0,,2,293490,21,14,Rakytin ,1,0,,897537,293490.21,5620339,0,3063523863136946945,"[3447.149, 0]",3447.149,268.922,0,1,2146,1,ZESP,000000,fabd00,ad1519,0,B,0.0,es,"[164, 0]","[0, 0]","[0, 0]",1,71.0,3,1,10,37,0,,20,0,463.34,496.89,10.94,"[0, 0]","['1.43', 0]","['49', 0]","[234, 0]","['3.3', 0]","['3.2', 0]","[0, 0]",1,"['', 0]","['', 0]","['', 0]","['', 0]","['', 0]","['', 0]","['', 0]","['0', 0]","['0', 0]","['0', 0]","['0', 0]","['0', 0]","['0', 0]","['0', 0]",0,0,0,1,0,0,0,0,[],0,0,0,0
21,,234,0,,2,293490,22,15,David Ávila ,1,0,,594655,293490.22,1877938,0,3063523863136644063,"[3465.804, 0]",3465.804,287.577,0,1,2146,0,ZESP,000000,fabd00,ad1519,1,B,0.0,es,"[181, 1]","[193, 0]","[0, 0]",1,66.0,3,1,1,40,0,,20,0,473.68,526.88,18.90,"[241, 0]","['1.30', 0]","['50', 0]","[235, 0]","['3.6', 0]","['3.5', 0]","[232, 0]",0,"['3.7', 0]","['4.0', 0]","['4.2', 0]","['4.6', 0]","['5.2', 0]","['6.0', 0]","['6.8', 0]","['245', 4]","['263', 0]","['279', 0]","['303', 0]","['344', 0]","['398', 0]","['448', 0]",0,0,0,1,0,0,0,0,[],0,0,0,0
22,,235,0,,2,293490,23,16,Alberto Perez ,1,0,,293153,293490.23,0,0,3063523863136342561,"[3466.395, 0]",3466.395,288.168,0,1,2146,0,ZESP,000000,fabd00,ad1519,1,B,0.0,es,"[150, 0]","[165, 0]","[0, 0]",1,69.0,3,1,1,48,0,,20,0,484.01,493.10,19.38,"[238, 0]","['1.53', 0]","['45', 0]","[230, 0]","['3.3', 0]","['3.3', 0]","[230, 0]",0,"['3.5', 0]","['3.8', 0]","['4.1', 0]","['4.4', 0]","['5.0', 0]","['5.7', 0]","['6.5', 0]","['243', 0]","['261', 0]","['286', 0]","['307', 0]","['342', 0]","['394', 0]","['449', 0]",0,0,0,1,0,0,0,0,[],0,0,0,0
23,,250,0,,2,293490,24,17,Carles Ros,1,0,,1545808,293490.24,0,0,3063523863137595216,"[3491.226, 0]",3491.226,312.999,0,1,2146,0,ZESP,000000,fabd00,ad1519,1,B,0.0,es,"[149, 0]","[163, 0]","[0, 0]",1,84.0,3,1,1,47,0,,30,0,494.35,565.72,21.13,"[288, 0]","['1.90', 0]","['44', 0]","[283, 0]","['3.4', 0]","['3.2', 0]","[275, 0]",0,"['3.5', 4]","['3.8', 4]","['4.1', 4]","['4.2', 0]","['4.5', 0]","['4.8', 0]","['5.2', 0]","['290', 4]","['316', 4]","['341', 4]","['355', 4]","['380', 0]","['404', 0]","['434', 0]",0,0,0,1,0,0,0,0,[],0,0,0,0
24,,270,0,,2,293490,25,18,Fran Morís,1,0,,88349,293490.25,3124664,0,3063523863136137757,"[3492.006, 0]",3492.006,313.779,0,1,2146,0,ZESP,000000,fabd00,ad1519,1,B,0.0,es,"[161, 0]","[172, 0]","[0, 0]",1,78.0,3,1,1,47,0,,20,0,504.69,483.31,8.51,"[269, 0]","['1.64', 0]","['47', 0]","[264, 0]","['3.4', 0]","['3.3', 0]","[259, 0]",0,"['3.5', 0]","['3.9', 0]","['4.1', 0]","['4.4', 0]","['4.6', 0]","['5.2', 0]","['6.1', 0]","['273', 0]","['301', 0]","['322', 0]","['347', 0]","['359', 0]","['406', 0]","['477', 0]",0,0,0,1,0,0,0,0,[],0,0,0,0
25,,282,0,,2,293490,26,19,Ursus ,1,0,,1436417,293490.26,3453439,5,3063523863137485825,"[3502.974, 0]",3502.974,324.747,0,1,2146,0,ZESP,000000,fabd00,ad1519,1,B,0.0,es,"[172, 0]","[184, 0]","[0, 0]",1,79.0,3,1,1,44,0,,20,0,515.03,578.26,16.99,"[280, 0]","['1.60', 0]","['49', 0]","[276, 0]","['3.5', 0]","['3.4', 0]","[273, 0]",0,"['3.6', 0]","['3.9', 0]","['4.2', 0]","['4.6', 0]","['4.8', 0]","['5.1', 0]","['6.4', 0]","['288', 0]","['308', 0]","['330', 0]","['360', 0]","['376', 0]","['405', 0]","['508', 0]",0,0,0,1,0,0,0,0,[],0,0,0,0
26,,290,0,,2,293490,27,20,Rober Galan,1,0,,502298,293490.27,1929072,0,3063523863136551706,"[3503.706, 0]",3503.706,325.479,0,1,2146,0,ZESP,000000,fabd00,ad1519,0,B,0.0,es,"[152, 0]","[0, 0]","[0, 0]",1,79.0,3,1,10,49,0,,20,0,525.37,525.04,4.21,"[0, 0]","['1.77', 0]","['44', 0]","[269, 0]","['3.4', 0]","['3.3', 0]","[0, 0]",1,"['', 0]","['', 0]","['', 0]","['', 0]","['', 0]","['', 0]","['', 0]","['0', 0]","['0', 0]","['0', 0]","['0', 0]","['0', 0]","['0', 0]","['0', 0]",0,0,0,1,0,0,0,0,[],0,0,0,0
27,,211,0,,2,293490,28,21,Javipla (ZESP 4),1,0,,953134,293490.28,18086196,0,3063523863137002542,"[3513.315, 0]",3513.315,335.088,0,1,2146,0,ZESP,000000,fabd00,ad1519,1,B,0.0,es,"[159, 0]","[168, 0]","[0, 0]",1,58.0,3,1,1,45,0,,20,0,535.70,592.36,12.86,"[206, 0]","['1.27', 0]","['45', 0]","[202, 0]","['3.5', 0]","['3.3', 0]","[194, 0]",0,"['3.5', 0]","['3.8', 0]","['3.9', 0]","['4.3', 0]","['5.0', 0]","['5.7', 0]","['7.3', 0]","['205', 0]","['219', 0]","['229', 0]","['249', 0]","['289', 0]","['329', 0]","['423', 0]",0,0,0,1,0,0,0,0,[],0,0,0,0
28,,249,0,,2,293490,29,22,Rubén Fernández,1,0,,138336,293490.29,5565781,0,3063523863136187744,"[3516.452, 0]",3516.452,338.225,0,1,2146,1,ZESP,000000,fabd00,ad1519,1,B,0.0,es,"[166, 0]","[180, 0]","[0, 0]",1,76.0,3,1,1,42,0,,20,0,546.04,497.72,0,"[260, 0]","['1.52', 0]","['49', 0]","[253, 0]","['3.3', 0]","['3.3', 0]","[254, 0]",0,"['3.5', 0]","['3.9', 0]","['4.2', 0]","['4.5', 0]","['4.8', 0]","['5.3', 0]","['6.0', 0]","['268', 0]","['296', 0]","['316', 0]","['345', 0]","['368', 0]","['402', 0]","['457', 0]",0,0,0,1,0,0,0,0,[],0,0,0,0
29,,195,0,,2,293490,30,23,Jorrrch,1,0,,596574,293490.30,16050396,0,3063523863136645982,"[3537.81, 0]",3537.81,359.583,0,1,2146,0,ZESP,000000,fabd00,ad1519,1,B,0.0,es,"[166, 0]","[171, 0]","[0, 0]",1,58.0,3,1,1,48,0,,20,0,566.72,496.07,0,"[205, 0]","['1.22', 0]","['47', 0]","[202, 0]","['3.5', 0]","['3.4', 0]","[197, 0]",0,"['3.6', 0]","['4.0', 4]","['4.1', 0]","['4.3', 0]","['4.7', 0]","['5.3', 0]","['6.1', 0]","['208', 0]","['230', 4]","['237', 0]","['247', 0]","['271', 0]","['306', 0]","['352', 0]",0,0,0,1,0,0,0,0,[],0,0,0,0
30,,0,0,,2,293490,31,24, Charly ,1,0,,1592472,293490.31,16897382,0,3063523863137641880,"[3620.054, 0]",3620.054,441.827,0,1,2146,0,ZESP,000000,fabd00,ad1519,1,B,0.0,es,"[171, 0]","[180, 0]","[0, 0]",1,70.0,3,1,1,36,0,,0,0,577.06,0,4.59,"[257, 0]","['1.47', 0]","['47', 0]","[251, 0]","['3.6', 0]","['3.6', 0]","[252, 0]",0,"['3.8', 4]","['4.1', 4]","['4.4', 0]","['4.6', 4]","['5.6', 4]","['6.8', 4]","['8.0', 4]","['266', 4]","['287', 4]","['311', 4]","['320', 4]","['389', 4]","['476', 4]","['557', 4]",0,0,0,1,0,0,0,0,[],0,0,0,0
31,,241,0,,2,293490,32,25,  Xiroko ,1,0,,969760,293490.32,0,0,3063523863137019168,"[3624.823, 0]",3624.823,446.596,0,1,2146,0,ZESP,000000,fabd00,ad1519,1,B,0.0,es,"[175, 0]","[194, 0]","[0, 0]",1,70.0,3,1,1,39,0,,20,0,587.40,546.93,2.52,"[230, 0]","['1.22', 0]","['57', 0]","[214, 0]","['3.1', 0]","['3.0', 0]","[214, 0]",0,"['3.2', 0]","['4.0', 0]","['4.3', 0]","['5.0', 0]","['6.4', 0]","['7.9', 1]","['8.5', 0]","['226', 0]","['278', 0]","['303', 0]","['352', 0]","['448', 0]","['551', 0]","['594', 0]",0,0,0,1,0,0,0,0,[],0,0,0,0
32,,225,0,,2,293490,33,26,Juan The One,1,0,,937639,293490.33,9829380,0,3063523863136987047,"[3637.422, 0]",3637.422,459.195,0,1,2146,1,ZESP,000000,fabd00,ad1519,1,B,171.0,es,"[134, 0]","[157, 1]","[0, 0]",1,61.0,3,1,1,40,0,,20,0,597.73,422.05,0,"[201, 0]","['1.45', 0]","['42', 0]","[194, 0]","['3.2', 0]","['3.1', 0]","[192, 0]",0,"['3.3', 0]","['3.9', 0]","['4.1', 0]","['4.4', 0]","['5.0', 0]","['6.0', 0]","['7.1', 0]","['203', 0]","['235', 0]","['252', 0]","['266', 0]","['303', 0]","['367', 0]","['433', 0]",0,0,0,1,0,0,0,0,[],0,0,0,0
33,,246,0,,2,293490,34,27,Tim Theobalds,1,0,,985016,293490.34,0,0,3063523863137034424,"[3646.518, 0]",3646.518,468.291,0,1,0,0,,00dd00,,,1,B,0.0,gb,"[167, 0]","[198, 1]","[0, 0]",1,68.0,3,1,1,49,0,,20,0,0,592.66,0,"[241, 0]","['1.40', 0]","['48', 0]","[233, 0]","['3.4', 0]","['3.3', 0]","[228, 0]",0,"['3.5', 0]","['4.0', 0]","['4.5', 4]","['5.2', 0]","['5.9', 0]","['6.4', 0]","['6.9', 0]","['240', 0]","['269', 0]","['305', 4]","['351', 0]","['399', 0]","['437', 0]","['468', 0]",0,0,0,1,0,0,0,0,[],0,0,0,0
34,,223,0,,2,293490,35,28,manolo garcia,1,0,,577557,293490.35,0,0,3063523863136626965,"[3648.899, 0]",3648.899,470.672,0,1,2146,0,ZESP,000000,fabd00,ad1519,1,B,0.0,es,"[157, 0]","[169, 0]","[0, 0]",1,61.0,3,1,1,34,0,,20,0,0,522.50,0,"[201, 0]","['1.24', 0]","['49', 0]","[195, 0]","['3.2', 0]","['3.1', 0]","[191, 0]",0,"['3.3', 0]","['3.8', 0]","['3.9', 0]","['4.3', 0]","['4.7', 0]","['5.0', 0]","['6.2', 0]","['202', 0]","['232', 0]","['237', 0]","['261', 0]","['288', 4]","['308', 0]","['381', 4]",0,0,0,1,0,0,0,0,[],0,0,0,0
35,,235,0,,2,293490,36,29,Juanjo Ferres🔰,1,0,,69023,293490.36,6313828,0,3063523863136118431,"[3653.318, 0]",3653.318,475.091,0,1,2146,0,ZESP,000000,fabd00,ad1519,1,B,0.0,es,"[158, 0]","[183, 0]","[181, 0]",1,84.0,3,1,1,45,0,,20,0,0,385.68,0,"[240, 0]","['1.42', 0]","['58', 0]","[225, 0]","['2.7', 0]","['2.7', 0]","[228, 0]",0,"['2.9', 0]","['3.2', 0]","['3.6', 0]","['4.1', 0]","['5.2', 0]","['5.4', 0]","['6.5', 0]","['240', 0]","['265', 0]","['305', 0]","['347', 0]","['433', 0]","['457', 0]","['546', 0]",0,0,0,1,0,0,0,0,[],0,0,0,0
36,,240,0,,2,293490,37,30,Jose_lal,1,0,,264843,293490.37,0,0,3063523863136314251,"[3700.943, 0]",3700.943,522.716,0,1,2146,1,ZESP,000000,fabd00,ad1519,1,B,0.0,es,"[146, 0]","[165, 0]","[0, 0]",1,71.0,3,1,1,49,0,,20,0,0,0,0,"[238, 0]","['1.60', 0]","['44', 0]","[234, 0]","['3.3', 0]","['3.3', 0]","[236, 0]",0,"['3.5', 0]","['3.8', 0]","['4.1', 0]","['4.2', 0]","['4.6', 0]","['4.7', 0]","['5.1', 0]","['249', 4]","['272', 4]","['292', 4]","['299', 4]","['324', 0]","['335', 0]","['359', 0]",0,0,0,1,0,0,0,0,[],0,0,0,0
37,,314,0,,2,293490,38,31,Raul Cabezuela,1,0,,1156801,293490.38,0,0,3063523863137206209,"[3763.263, 0]",3763.263,585.036,0,1,2146,0,ZESP,000000,fabd00,ad1519,1,B,0.0,es,"[154, 0]","[168, 0]","[0, 0]",1,92.0,3,1,1,40,0,,20,0,0,564.22,0,"[274, 0]","['1.73', 0]","['53', 0]","[266, 0]","['2.9', 0]","['2.9', 0]","[267, 0]",0,"['3.1', 0]","['3.3', 0]","['3.4', 0]","['3.6', 0]","['4.2', 0]","['4.7', 0]","['5.1', 0]","['282', 0]","['300', 0]","['314', 0]","['330', 0]","['386', 0]","['435', 0]","['472', 0]",0,0,0,1,0,0,0,0,[],0,0,0,0
38,,265,0,,2,293490,39,32,Euge,1,0,,663266,293490.39,0,0,3063523863136712674,"[4221.847, 0]",4221.847,1043.62,0,1,2146,0,ZESP,000000,fabd00,ad1519,1,B,0.0,es,"[153, 0]","[169, 0]","[0, 0]",1,75.0,3,1,1,57,0,,20,0,0,502.88,0,"[204, 0]","['1.31', 0]","['57', 0]","[200, 0]","['2.7', 0]","['2.7', 0]","[205, 0]",0,"['2.9', 0]","['3.2', 0]","['3.6', 0]","['3.8', 0]","['3.9', 0]","['4.2', 0]","['4.5', 0]","['216', 0]","['240', 0]","['268', 0]","['283', 0]","['292', 0]","['314', 0]","['334', 0]",0,0,0,1,0,0,0,0,[],0,0,0,0
39,,272,0,,3,293490,40,1,rtarancon,1,0,,69328,293490.40,3763052,0,3063523963136118736,"[3502.55, 0]",3502.55,0.0,0,1,2146,0,ZESP,000000,fabd00,ad1519,1,C,0.0,es,"[160, 0]","[177, 0]","[0, 0]",1,81.0,3,1,1,44,0,,30,0,478.12,554.42,24.38,"[260, 0]","['1.59', 0]","['51', 0]","[254, 0]","['3.1', 0]","['3.0', 0]","[247, 0]",0,"['3.2', 0]","['3.7', 4]","['4.0', 4]","['4.4', 4]","['4.8', 0]","['5.0', 0]","['6.0', 0]","['260', 0]","['296', 4]","['320', 4]","['355', 4]","['390', 0]","['408', 0]","['487', 0]",0,0,0,1,0,0,0,0,[],0,0,0,0
40,,268,0,,3,293490,41,2,José Manuel Maroño,1,0,,358883,293490.41,0,0,3063523963136408291,"[3531.234, 0]",3531.234,28.684,0,1,2146,0,ZESP,000000,fabd00,ad1519,0,C,0.0,es,"[163, 0]","[0, 0]","[0, 0]",1,93.0,3,1,10,44,0,,30,0,485.76,516.06,15.25,"[0, 0]","['1.74', 0]","['53', 0]","[283, 0]","['3.0', 0]","['2.9', 0]","[0, 0]",1,"['', 0]","['', 0]","['', 0]","['', 0]","['', 0]","['', 0]","['', 0]","['0', 0]","['0', 0]","['0', 0]","['0', 0]","['0', 0]","['0', 0]","['0', 0]",0,0,0,1,0,0,0,0,[],0,0,0,0
41,,238,0,,3,293490,42,3,MarioMaestro ,1,0,,1550753,293490.42,0,0,3063523963137600161,"[3580.733, 0]",3580.733,78.183,0,1,2146,0,ZESP,000000,fabd00,ad1519,1,C,0.0,es,"[170, 0]","[189, 0]","[0, 0]",1,90.0,3,1,1,33,0,,30,0,493.40,574.07,21.32,"[295, 0]","['1.65', 0]","['54', 0]","[280, 0]","['3.1', 0]","['3.0', 0]","[273, 0]",0,"['3.2', 4]","['3.6', 4]","['3.9', 0]","['4.6', 0]","['5.7', 4]","['6.2', 0]","['6.9', 0]","['288', 4]","['324', 4]","['351', 0]","['410', 0]","['510', 4]","['561', 4]","['625', 4]",0,0,0,1,0,0,0,0,[],0,0,0,0
42,,220,0,,3,293490,43,4,Alberto Laguillo,1,0,,1359235,293490.43,0,5,3063523963137408643,"[3623.319, 0]",3623.319,120.769,0,1,2146,0,ZESP,000000,fabd00,ad1519,1,C,0.0,es,"[155, 0]","[172, 0]","[0, 0]",1,64.0,3,1,1,43,0,,20,0,508.69,569.56,18.26,"[222, 0]","['1.37', 0]","['46', 0]","[212, 0]","['3.3', 0]","['3.3', 0]","[210, 0]",0,"['3.5', 0]","['4.2', 0]","['4.4', 0]","['5.0', 0]","['5.9', 0]","['7.3', 0]","['8.9', 1]","['222', 0]","['271', 4]","['281', 0]","['320', 0]","['380', 0]","['465', 0]","['570', 0]",0,0,0,1,0,0,0,0,[],0,0,0,0
43,,202,0,,3,293490,44,5,Chusky ,1,0,,1358249,293490.44,21674935,0,3063523963137407657,"[3662.361, 0]",3662.361,159.811,0,1,2146,0,ZESP,000000,fabd00,ad1519,1,C,0.0,es,"[168, 0]","[190, 0]","[0, 0]",1,67.0,3,1,1,31,0,,30,0,516.33,557.40,11.28,"[208, 0]","['1.18', 0]","['56', 0]","[199, 0]","['3.0', 0]","['3.0', 0]","[201, 0]",0,"['3.2', 4]","['3.6', 4]","['3.8', 0]","['4.2', 0]","['4.6', 0]","['5.0', 0]","['6.0', 0]","['212', 4]","['241', 4]","['256', 4]","['280', 0]","['307', 0]","['333', 0]","['401', 0]",0,0,0,1,0,0,0,0,[],0,0,0,0
44,,247,0,,3,293490,45,6,Piwilompa ,1,0,,1395769,293490.45,10601918,1,3063523963137445177,"[3662.861, 0]",3662.861,160.311,0,1,2146,0,ZESP,000000,fabd00,ad1519,1,C,0.0,es,"[163, 0]","[177, 0]","[0, 0]",1,79.0,3,1,1,40,0,,30,0,523.98,565.04,15.21,"[248, 0]","['1.48', 0]","['53', 0]","[242, 0]","['3.1', 0]","['3.1', 0]","[246, 0]",0,"['3.3', 4]","['3.5', 0]","['3.7', 0]","['4.0', 0]","['4.8', 0]","['5.4', 0]","['6.1', 0]","['259', 4]","['277', 0]","['291', 0]","['317', 0]","['380', 0]","['425', 0]","['484', 0]",0,0,0,1,0,0,0,0,[],0,0,0,0
45,,228,0,,3,293490,46,7,Sgarcía,1,0,,1486115,293490.46,0,0,3063523963137535523,"[3771.636, 0]",3771.636,269.086,0,1,2146,0,ZESP,000000,fabd00,ad1519,0,C,0.0,es,"[173, 0]","[0, 0]","[0, 0]",1,70.0,3,1,10,42,0,,30,0,546.91,580.22,10.62,"[0, 0]","['1.25', 0]","['56', 0]","[216, 0]","['3.1', 0]","['3.0', 0]","[0, 0]",1,"['', 0]","['', 0]","['', 0]","['', 0]","['', 0]","['', 0]","['', 0]","['0', 0]","['0', 0]","['0', 0]","['0', 0]","['0', 0]","['0', 0]","['0', 0]",0,0,0,1,0,0,0,0,[],0,0,0,0
46,,286,0,,3,293490,47,8,Daniel Cotterell (SSVC),1,0,,82144,293490.47,0,0,3063523963136131552,"[3790.975, 0]",3790.975,288.425,0,1,0,0,,00dd00,,,1,C,188.0,gb,"[154, 0]","[166, 0]","[0, 0]",1,92.0,3,1,1,41,0,,30,0,554.55,596.25,9.09,"[277, 0]","['1.78', 0]","['51', 0]","[274, 0]","['3.0', 0]","['2.9', 0]","[270, 0]",0,"['3.1', 4]","['3.3', 0]","['3.5', 0]","['3.9', 0]","['4.0', 0]","['4.1', 0]","['4.3', 0]","['285', 4]","['307', 0]","['323', 0]","['357', 0]","['372', 0]","['380', 0]","['398', 0]",0,0,0,1,0,0,0,0,[],0,0,0,0
47,,209,0,,3,293490,48,9,J Delgado57,1,0,,1378289,293490.48,0,0,3063523963137427697,"[3826.513, 0]",3826.513,323.963,0,1,2146,0,ZESP,000000,fabd00,ad1519,1,C,0.0,es,"[162, 0]","[175, 0]","[0, 0]",1,68.0,3,1,1,32,0,,30,0,562.19,589.42,7.56,"[211, 0]","['1.28', 0]","['52', 0]","[208, 0]","['3.1', 0]","['2.9', 0]","[202, 0]",0,"['3.1', 0]","['3.5', 0]","['3.6', 0]","['3.9', 0]","['4.0', 0]","['4.2', 0]","['5.4', 0]","['213', 0]","['237', 0]","['248', 0]","['265', 0]","['275', 0]","['288', 0]","['369', 0]",0,0,0,1,0,0,0,0,[],0,0,0,0
48,,180,0,,3,293490,49,10,toni cb,1,0,,185907,293490.49,0,0,3063523963136235315,"[3850.927, 0]",3850.927,348.377,0,1,2146,0,ZESP,000000,fabd00,ad1519,1,C,0.0,es,"[157, 0]","[172, 0]","[0, 0]",1,52.0,3,1,1,42,0,,30,0,569.84,546.35,6.03,"[166, 0]","['1.03', 0]","['50', 0]","[162, 0]","['3.1', 0]","['3.0', 0]","[156, 0]",0,"['3.2', 0]","['3.5', 0]","['3.9', 0]","['4.4', 0]","['5.0', 4]","['5.6', 0]","['5.9', 0]","['165', 0]","['184', 0]","['203', 0]","['230', 0]","['258', 0]","['292', 0]","['306', 0]",0,0,0,1,0,0,0,0,[],0,0,0,0
49,,226,0,,3,293490,50,11,Desmond Torr,1,0,,860698,293490.50,0,0,3063523963136910106,"[3871.833, 0]",3871.833,369.283,0,1,0,0,,00dd00,,,1,C,0.0,za,"[170, 0]","[188, 0]","[0, 0]",1,75.0,3,1,1,38,0,,30,0,577.48,499.68,0,"[225, 0]","['1.24', 0]","['60', 0]","[210, 0]","['2.8', 0]","['2.8', 0]","[212, 0]",0,"['3.0', 0]","['3.3', 0]","['3.6', 0]","['4.2', 0]","['5.2', 0]","['6.2', 0]","['7.6', 0]","['224', 0]","['249', 0]","['269', 0]","['314', 0]","['390', 0]","['466', 0]","['570', 0]",0,0,0,1,0,0,0,0,[],0,0,0,0
50,,206,0,,3,293490,51,12,Neroncete,1,0,,1146297,293490.51,24956309,0,3063523963137195705,"[3945.64, 0]",3945.64,443.09,0,1,2146,1,ZESP,000000,fabd00,ad1519,1,C,0.0,es,"[133, 0]","[162, 0]","[0, 0]",1,67.0,3,1,1,48,0,,30,0,592.77,0,1.45,"[208, 0]","['1.51', 0]","['44', 0]","[201, 0]","['3.0', 0]","['3.0', 0]","[202, 0]",0,"['3.2', 4]","['3.7', 0]","['3.9', 0]","['4.1', 0]","['4.4', 0]","['4.9', 0]","['5.4', 0]","['213', 0]","['249', 0]","['263', 0]","['276', 0]","['298', 0]","['326', 0]","['364', 0]",0,0,0,1,0,0,0,0,[],0,0,0,0
51,,225,0,,3,293490,52,13,Maxi ,1,0,,1219782,293490.52,15650402,0,3063523963137269190,"[3981.12, 0]",3981.12,478.57,0,1,2146,0,ZESP,000000,fabd00,ad1519,1,C,0.0,es,"[177, 0]","[196, 0]","[0, 0]",1,82.0,3,1,1,33,0,,30,0,0,566.33,0,"[219, 0]","['1.19', 0]","['69', 0]","[210, 0]","['2.6', 0]","['2.5', 0]","[208, 0]",0,"['2.7', 0]","['3.0', 0]","['3.2', 0]","['3.4', 0]","['3.8', 0]","['4.3', 0]","['4.8', 0]","['219', 0]","['246', 0]","['262', 0]","['281', 0]","['313', 0]","['352', 0]","['390', 0]",0,0,0,1,0,0,0,0,[],0,0,0,0
52,,278,0,,3,293490,53,14,N. Rodriguez ,1,0,,455782,293490.53,33787034,0,3063523963136505190,"[4024.599, 0]",4024.599,522.049,0,1,2146,1,ZESP,000000,fabd00,ad1519,1,C,0.0,es,"[160, 0]","[171, 0]","[0, 0]",1,88.0,3,1,1,50,0,,30,0,0,586.22,0,"[233, 0]","['1.36', 0]","['64', 0]","[217, 0]","['2.5', 0]","['2.5', 0]","[223, 0]",0,"['2.7', 0]","['3.0', 0]","['3.4', 0]","['3.9', 0]","['4.2', 0]","['4.8', 0]","['6.2', 0]","['235', 0]","['265', 0]","['296', 0]","['340', 0]","['367', 0]","['426', 0]","['542', 0]",0,0,0,1,0,0,0,0,[],0,0,0,0
53,,185,0,,3,293490,54,15,Jaime,1,0,,1204926,293490.54,39105519,0,3063523963137254334,"[4077.198, 0]",4077.198,574.648,0,1,2146,0,ZESP,000000,fabd00,ad1519,1,C,0.0,es,"[161, 0]","[171, 0]","[0, 0]",1,58.0,3,1,1,36,0,,30,0,0,582.70,0,"[166, 0]","['0.99', 0]","['58', 0]","[159, 0]","['2.7', 0]","['2.7', 0]","[160, 0]",0,"['2.9', 0]","['3.3', 0]","['3.6', 0]","['3.9', 0]","['4.1', 0]","['4.6', 0]","['5.6', 0]","['169', 0]","['193', 0]","['209', 0]","['225', 0]","['238', 0]","['265', 0]","['324', 0]",0,0,0,1,0,0,0,0,[],0,0,0,0
54,,210,0,,3,293490,55,16,Manu Domínguez,1,0,,1445769,293490.55,8896618,0,3063523963137495177,"[4121.879, 0]",4121.879,619.329,0,1,2146,0,ZESP,000000,fabd00,ad1519,0,C,0.0,es,"[74, 0]","[0, 0]","[0, 0]",1,74.0,3,1,10,47,0,,30,0,0,579.02,0,"[0, 0]","[0, 0]","[0, 0]","[187, 0]","['2.5', 0]","['2.5', 0]","[0, 0]",1,"['', 0]","['', 0]","['', 0]","['', 0]","['', 0]","['', 0]","['', 0]","['0', 0]","['0', 0]","['0', 0]","['0', 0]","['0', 0]","['0', 0]","['0', 0]",0,0,0,1,0,0,0,0,[],0,0,0,0
55,,214,0,,3,293490,56,17,jpr_dash,1,0,,1511125,293490.56,6431184,0,3063523963137560533,"[4202.727, 0]",4202.727,700.177,0,1,2146,1,ZESP,000000,fabd00,ad1519,1,C,0.0,es,"[155, 0]","[178, 0]","[0, 0]",1,65.0,3,1,1,50,0,,30,0,0,591.06,0,"[186, 0]","['1.17', 0]","['55', 0]","[182, 0]","['2.8', 0]","['2.8', 0]","[184, 0]",0,"['3.0', 0]","['3.3', 0]","['3.4', 0]","['3.9', 4]","['4.4', 0]","['4.6', 0]","['4.7', 0]","['194', 0]","['215', 0]","['224', 4]","['252', 4]","['285', 0]","['299', 0]","['305', 0]",0,0,0,1,0,0,0,0,[],0,0,0,0
56,,280,0,,3,293490,57,18,BernardTri,1,0,,169217,293490.57,9578416,0,3063523963136218625,"[4321.484, 0]",4321.484,818.934,0,1,2146,0,ZESP,000000,fabd00,ad1519,1,C,0.0,es,"[156, 0]","[171, 0]","[0, 0]",1,83.0,3,1,1,51,0,,30,0,0,583.53,0,"[204, 0]","['1.26', 0]","['66', 0]","[196, 0]","['2.4', 0]","['2.3', 0]","[190, 0]",0,"['2.4', 0]","['3.0', 0]","['3.2', 0]","['3.5', 0]","['3.7', 0]","['3.9', 0]","['4.3', 0]","['201', 0]","['248', 0]","['268', 0]","['287', 0]","['305', 0]","['322', 0]","['360', 0]",0,0,0,1,0,0,0,0,[],0,0,0,0
57,,181,0,,3,293490,58,19,Josue,1,0,,504928,293490.58,18534692,0,3063523963136554336,"[4407.106, 0]",4407.106,904.556,0,1,2146,0,ZESP,000000,fabd00,ad1519,1,C,0.0,es,"[162, 0]","[172, 0]","[0, 0]",1,67.0,3,1,1,42,0,,30,0,0,585.36,0,"[167, 0]","['1.01', 0]","['66', 0]","[163, 0]","['2.4', 0]","['2.4', 0]","[163, 0]",0,"['2.6', 0]","['2.6', 0]","['2.8', 0]","['3.1', 0]","['3.4', 0]","['3.8', 0]","['4.3', 0]","['172', 0]","['177', 0]","['186', 0]","['206', 0]","['229', 0]","['254', 0]","['285', 0]",0,0,0,1,0,0,0,0,[],0,0,0,0
58,,250,0,,3,293490,59,20,Luis Calleja ,1,0,,280541,293490.59,18664174,0,3063523963136329949,"[4702.946, 0]",4702.946,1200.396,0,1,2146,0,ZESP,000000,fabd00,ad1519,1,C,0.0,es,"[137, 0]","[162, 0]","[0, 0]",1,70.0,3,1,1,44,0,,30,0,0,0,0,"[163, 0]","['1.12', 0]","['62', 0]","[153, 0]","['2.2', 0]","['2.3', 0]","[163, 0]",0,"['2.5', 0]","['2.7', 0]","['3.1', 0]","['3.3', 0]","['3.7', 0]","['4.0', 0]","['4.2', 0]","['172', 0]","['190', 0]","['216', 0]","['231', 0]","['256', 0]","['280', 0]","['297', 0]",0,0,0,1,0,0,0,0,[],0,0,0,0
59,,160,0,,4,293490,60,1,Vu Nguyen-VietVelo,1,0,,111934,293490.60,884611,0,3063524063136161342,"[4736.222, 0]",4736.222,0.0,0,1,2231,0,V I E T V E L O,ff0000,ffe600,ff0000,1,D,0.0,us,"[138, 0]","[160, 0]","[0, 0]",1,57.6,3,1,1,50,0,,40,0,0,0,0,"[133, 0]","['0.88', 0]","['65', 0]","[122, 0]","['2.1', 0]","['2.2', 0]","[129, 0]",0,"['2.4', 4]","['2.6', 0]","['2.9', 4]","['3.1', 0]","['4.1', 4]","['5.2', 4]","['6.9', 4]","['136', 4]","['152', 4]","['166', 4]","['181', 4]","['235', 4]","['298', 4]","['395', 4]",0,0,0,1,0,0,0,0,[],0,0,0,0
60,,164,0,,4,293490,61,2,Rominauer,1,0,,659304,293490.61,21201113,0,3063524063136708712,"[5709.145, 0]",5709.145,972.923,0,1,2146,0,ZESP,000000,fabd00,ad1519,1,D,0.0,es,"[139, 0]","[168, 0]","[0, 0]",1,90.0,3,1,1,44,0,,40,0,0,0,0,"[156, 0]","['1.03', 0]","['87', 0]","[143, 0]","['1.6', 0]","['1.6', 0]","[152, 0]",0,"['1.8', 0]","['2.4', 0]","['2.7', 0]","['2.7', 0]","['3.0', 0]","['3.2', 0]","['3.5', 0]","['160', 0]","['212', 0]","['240', 0]","['246', 0]","['266', 0]","['286', 0]","['314', 0]",0,0,0,1,0,0,0,0,[],0,0,0,0
